{
  "movies": [
    {
      "id": "028755db-4a6f-498c-834a-bf121b094a11",
      "title": "The Bluff",
      "original_title": null,
      "thumbnail": "https://poster.lk21.party/wp-content/uploads/2026/02/film-bluff-2026-lk21.jpg.webp",
      "synopsis": null,
      "rating": 5.4,
      "duration": 104,
      "year": 2026,
      "date_published": null,
      "label_quality": "HD",
      "genre": null,
      "original_page_url": "https://tv8.lk21official.cc//bluff-2026"
    },
    {
      "id": "24dbd036-db1d-4692-bd20-d500411f1095",
      "title": "Shelter",
      "original_title": null,
      "thumbnail": "https://poster.lk21.party/wp-content/uploads/2026/02/film-shelter-2026-lk21.jpg.webp",
      "synopsis": null,
      "rating": 7,
      "duration": 108,
      "year": 2026,
      "date_published": null,
      "label_quality": "HD",
      "genre": null,
      "original_page_url": "https://tv8.lk21official.cc//shelter-2026"
    },
    {
      "id": "d07ef04c-0839-49d6-b2c7-49df5651730e",
      "title": "Anaconda: Blood Coil",
      "original_title": null,
      "thumbnail": "https://poster.lk21.party/wp-content/uploads/2026/02/film-anaconda-blood-coil-2026-lk21.jpg.webp",
      "synopsis": null,
      "rating": null,
      "duration": 71,
      "year": 2026,
      "date_published": null,
      "label_quality": "HD",
      "genre": null,
      "original_page_url": "https://tv8.lk21official.cc//anaconda-blood-coil-2026"
    },
    {
      "id": "ecf4bb3e-fff9-444e-9633-8dee9b8045bb",
      "title": "Taylor Tomlinson: Prodigal Daughter",
      "original_title": null,
      "thumbnail": "https://poster.lk21.party/wp-content/uploads/2026/02/film-taylor-tomlinson-prodigal-daughter-2026-lk21.jpg.webp",
      "synopsis": null,
      "rating": null,
      "duration": 69,
      "year": 2026,
      "date_published": null,
      "label_quality": "HD",
      "genre": null,
      "original_page_url": "https://tv8.lk21official.cc//taylor-tomlinson-prodigal-daughter-2026"
    },
    {
      "id": "fc6da3d3-7e7b-4fa7-976c-49873fe9ae00",
      "title": "Lazarus: The Awakening",
      "original_title": null,
      "thumbnail": "https://poster.lk21.party/wp-content/uploads/2026/02/film-lazarus-awakening-2026-lk21.jpg.webp",
      "synopsis": null,
      "rating": null,
      "duration": 91,
      "year": 2026,
      "date_published": null,
      "label_quality": "HD",
      "genre": null,
      "original_page_url": "https://tv8.lk21official.cc//lazarus-awakening-2026"
    },
    {
      "id": "fc654cb2-bbdd-4d7c-921b-5a79b2402223",
      "title": "One Mile: Chapter Two",
      "original_title": null,
      "thumbnail": "https://poster.lk21.party/wp-content/uploads/2026/02/film-one-mile-chapter-two-2026-lk21.jpg.webp",
      "synopsis": null,
      "rating": null,
      "duration": 83,
      "year": 2026,
      "date_published": null,
      "label_quality": "HD",
      "genre": null,
      "original_page_url": "https://tv8.lk21official.cc//one-mile-chapter-two-2026"
    },
    {
      "id": "a781d20e-f22d-4dd3-93c9-eee4b9b91bd5",
      "title": "One Mile",
      "original_title": null,
      "thumbnail": "https://poster.lk21.party/wp-content/uploads/2026/02/film-one-mile-2026-lk21.jpg.webp",
      "synopsis": null,
      "rating": 5.8,
      "duration": 89,
      "year": 2026,
      "date_published": null,
      "label_quality": "HD",
      "genre": null,
      "original_page_url": "https://tv8.lk21official.cc//one-mile-2026"
    },
    {
      "id": "fe766842-1ac2-4b45-b3a3-071400ad47dc",
      "title": "Crime 101",
      "original_title": null,
      "thumbnail": "https://poster.lk21.party/wp-content/uploads/2026/02/film-crime-101-2026-lk21.jpg.webp",
      "synopsis": null,
      "rating": 7,
      "duration": 133,
      "year": 2026,
      "date_published": null,
      "label_quality": "CAM",
      "genre": null,
      "original_page_url": "https://tv8.lk21official.cc//crime-101-2026"
    },
    {
      "id": "739d1db2-314c-40a7-8304-aa216546afc0",
      "title": "Hellfire",
      "original_title": null,
      "thumbnail": "https://poster.lk21.party/wp-content/uploads/2026/02/film-hellfire-2026-lk21.jpg.webp",
      "synopsis": null,
      "rating": 7,
      "duration": 95,
      "year": 2026,
      "date_published": null,
      "label_quality": "HD",
      "genre": null,
      "original_page_url": "https://tv8.lk21official.cc//hellfire-2026"
    },
    {
      "id": "7410e9e6-971e-45a4-92e8-1eb2f4760b49",
      "title": "Sommore 'Chandelier Fly'",
      "original_title": null,
      "thumbnail": "https://poster.lk21.party/wp-content/uploads/2026/02/film-sommore-chandelier-fly-2026-lk21.jpg.webp",
      "synopsis": null,
      "rating": null,
      "duration": 68,
      "year": 2026,
      "date_published": null,
      "label_quality": "HD",
      "genre": null,
      "original_page_url": "https://tv8.lk21official.cc//sommore-chandelier-fly-2026"
    },
    {
      "id": "ceeee717-85f7-478a-8efd-da8558683320",
      "title": "Caught Slippin",
      "original_title": null,
      "thumbnail": "https://poster.lk21.party/wp-content/uploads/2026/02/film-caught-slippin-2026-lk21.jpg.webp",
      "synopsis": null,
      "rating": 3,
      "duration": 60,
      "year": 2026,
      "date_published": null,
      "label_quality": "HD",
      "genre": null,
      "original_page_url": "https://tv8.lk21official.cc//caught-slippin-2026"
    },
    {
      "id": "5050614f-cafd-4698-aec7-1634707b203a",
      "title": "Queen of Chess",
      "original_title": null,
      "thumbnail": "https://poster.lk21.party/wp-content/uploads/2026/02/film-queen-chess-2026-lk21.jpg.webp",
      "synopsis": null,
      "rating": 7.5,
      "duration": 95,
      "year": 2026,
      "date_published": null,
      "label_quality": "HD",
      "genre": null,
      "original_page_url": "https://tv8.lk21official.cc//queen-chess-2026"
    },
    {
      "id": "6848c935-01d2-45a7-874c-32c858a1f427",
      "title": "Terry McMillan Presents: Tempted 2 Love",
      "original_title": null,
      "thumbnail": "https://poster.lk21.party/wp-content/uploads/2026/02/film-terry-mcmillan-presents-tempted-2-love-2026-lk21.jpg.webp",
      "synopsis": null,
      "rating": null,
      "duration": 88,
      "year": 2026,
      "date_published": null,
      "label_quality": "HD",
      "genre": null,
      "original_page_url": "https://tv8.lk21official.cc//terry-mcmillan-presents-tempted-2-love-2026"
    },
    {
      "id": "01372073-6bc4-4fe5-aad8-5c35c54d23ad",
      "title": "Within the Pines",
      "original_title": null,
      "thumbnail": "https://poster.lk21.party/wp-content/uploads/2026/02/film-within-pines-2026-lk21.jpg.webp",
      "synopsis": null,
      "rating": null,
      "duration": 73,
      "year": 2026,
      "date_published": null,
      "label_quality": "HD",
      "genre": null,
      "original_page_url": "https://tv8.lk21official.cc//within-pines-2026"
    },
    {
      "id": "00dcd962-3fa3-493b-a1a0-b610e5c74bb1",
      "title": "Mike Epps: Delusional",
      "original_title": null,
      "thumbnail": "https://poster.lk21.party/wp-content/uploads/2026/02/film-mike-epps-delusional-2026-lk21.jpg.webp",
      "synopsis": null,
      "rating": 6,
      "duration": 60,
      "year": 2026,
      "date_published": null,
      "label_quality": "HD",
      "genre": null,
      "original_page_url": "https://tv8.lk21official.cc//mike-epps-delusional-2026"
    },
    {
      "id": "e4ff7147-82c9-46c9-9e1c-943bf66da576",
      "title": "G.O.A.T. Adjacent",
      "original_title": null,
      "thumbnail": "https://poster.lk21.party/wp-content/uploads/2026/02/film-goat-adjacent-2026-lk21.jpg.webp",
      "synopsis": null,
      "rating": null,
      "duration": 50,
      "year": 2026,
      "date_published": null,
      "label_quality": "HD",
      "genre": null,
      "original_page_url": "https://tv8.lk21official.cc//goat-adjacent-2026"
    },
    {
      "id": "c13c6a87-17c9-404a-8a31-76e4acd2cc8f",
      "title": "Jackie Fabulous: You Can Leave",
      "original_title": null,
      "thumbnail": "https://poster.lk21.party/wp-content/uploads/2026/02/film-jackie-fabulous-you-can-leave-2026-lk21.jpg.webp",
      "synopsis": null,
      "rating": 7.1,
      "duration": 41,
      "year": 2026,
      "date_published": null,
      "label_quality": "HD",
      "genre": null,
      "original_page_url": "https://tv8.lk21official.cc//jackie-fabulous-you-can-leave-2026"
    },
    {
      "id": "ad605a21-2d73-4cf0-9707-1436aa25b97b",
      "title": "Mercy",
      "original_title": null,
      "thumbnail": "https://poster.lk21.party/wp-content/uploads/2026/02/film-mercy-2026-lk21.jpg.webp",
      "synopsis": null,
      "rating": 6.7,
      "duration": 104,
      "year": 2026,
      "date_published": null,
      "label_quality": "HD",
      "genre": null,
      "original_page_url": "https://tv8.lk21official.cc//mercy-2026"
    },
    {
      "id": "a27cbf9c-a474-4052-9acc-cb47afb486bd",
      "title": "28 Years Later: The Bone Temple",
      "original_title": null,
      "thumbnail": "https://poster.lk21.party/wp-content/uploads/2026/01/film-28-years-later-bone-temple-2026-lk21.jpg.webp",
      "synopsis": null,
      "rating": 7.2,
      "duration": 109,
      "year": 2026,
      "date_published": null,
      "label_quality": "HD",
      "genre": null,
      "original_page_url": "https://tv8.lk21official.cc//28-years-later-bone-temple-2026"
    },
    {
      "id": "5baebf17-9356-449f-9132-2fe2c9050f19",
      "title": "Terri Joe: Missionary in Miami",
      "original_title": null,
      "thumbnail": "https://poster.lk21.party/wp-content/uploads/2026/02/film-terri-joe-missionary-miami-2026-lk21.jpg.webp",
      "synopsis": null,
      "rating": 6,
      "duration": 82,
      "year": 2026,
      "date_published": null,
      "label_quality": "HD",
      "genre": null,
      "original_page_url": "https://tv8.lk21official.cc//terri-joe-missionary-miami-2026"
    },
    {
      "id": "ece05214-50d5-4ee5-9111-e8f5f324d73d",
      "title": "267",
      "original_title": null,
      "thumbnail": "https://poster.lk21.party/wp-content/uploads/2026/02/film-267-2026-lk21.jpg.webp",
      "synopsis": null,
      "rating": 5,
      "duration": 120,
      "year": 2026,
      "date_published": null,
      "label_quality": "HD",
      "genre": null,
      "original_page_url": "https://tv8.lk21official.cc//267-2026"
    },
    {
      "id": "3252f414-a13c-44bc-a56e-cb65aad2fc61",
      "title": "Disneyland Handcrafted",
      "original_title": null,
      "thumbnail": "https://poster.lk21.party/wp-content/uploads/2026/02/film-disneyland-handcrafted-2026-lk21.jpg.webp",
      "synopsis": null,
      "rating": 6.8,
      "duration": 78,
      "year": 2026,
      "date_published": null,
      "label_quality": "HD",
      "genre": null,
      "original_page_url": "https://tv8.lk21official.cc//disneyland-handcrafted-2026"
    },
    {
      "id": "ff697753-e291-4a2a-9433-6a0bb351fe50",
      "title": "Hands",
      "original_title": null,
      "thumbnail": "https://poster.lk21.party/wp-content/uploads/2026/02/film-hands-2026-lk21.jpg.webp",
      "synopsis": null,
      "rating": 2,
      "duration": 90,
      "year": 2026,
      "date_published": null,
      "label_quality": "HD",
      "genre": null,
      "original_page_url": "https://tv8.lk21official.cc//hands-2026"
    },
    {
      "id": "0533c809-576d-4ee1-819b-8f60b24270d1",
      "title": "Broken Bonds",
      "original_title": null,
      "thumbnail": "https://poster.lk21.party/wp-content/uploads/2026/02/film-broken-bonds-2026-lk21.jpg.webp",
      "synopsis": null,
      "rating": null,
      "duration": 109,
      "year": 2026,
      "date_published": null,
      "label_quality": "SD",
      "genre": null,
      "original_page_url": "https://tv8.lk21official.cc//broken-bonds-2026"
    }
  ],
  "pagination": {
    "current_page": 1,
    "total_page": 560,
    "total_items": 13440,
    "has_next": true,
    "has_prev": false,
    "next_page_url": "https://tv8.lk21official.cc/country/USA/page/2",
    "prev_page_url": null
  }
}
