{
  "movies": [
    {
      "id": "e70f27cf-27c1-43f3-aab3-8d0c613b772f",
      "title": "My Dead Friend Zoe",
      "original_title": null,
      "thumbnail": "https://poster.lk21.party/wp-content/uploads/2026/03/film-my-dead-friend-zoe-2024-lk21.jpg.webp",
      "synopsis": null,
      "rating": 6.3,
      "duration": null,
      "year": 2024,
      "date_published": null,
      "label_quality": "HD",
      "age_rating": null,
      "genre": null,
      "original_page_url": "https://tv8.lk21official.cc//my-dead-friend-zoe-2024"
    },
    {
      "id": "b49b3a91-ef8f-4299-b066-172c7b371a6e",
      "title": "Hill",
      "original_title": null,
      "thumbnail": "https://poster.lk21.party/wp-content/uploads/2026/03/film-hill-2025-lk21.jpg.webp",
      "synopsis": null,
      "rating": 7.7,
      "duration": null,
      "year": 2025,
      "date_published": null,
      "label_quality": "HD",
      "age_rating": null,
      "genre": null,
      "original_page_url": "https://tv8.lk21official.cc//hill-2025"
    },
    {
      "id": "3d590cd6-81ff-423d-b4bd-c3e9e82212e5",
      "title": "Qifarah",
      "original_title": null,
      "thumbnail": "https://poster.lk21.party/wp-content/uploads/2026/02/film-qifarah-2025-lk21.jpg.webp",
      "synopsis": null,
      "rating": 5.5,
      "duration": null,
      "year": 2025,
      "date_published": null,
      "label_quality": "HD",
      "age_rating": null,
      "genre": null,
      "original_page_url": "https://tv8.lk21official.cc//qifarah-2025"
    },
    {
      "id": "79a5be8c-9d68-434e-a680-97e06b249e5a",
      "title": "The Drift",
      "original_title": null,
      "thumbnail": "https://poster.lk21.party/wp-content/uploads/2026/02/film-drift-2026-lk21.jpg.webp",
      "synopsis": null,
      "rating": 3,
      "duration": null,
      "year": 2026,
      "date_published": null,
      "label_quality": "HD",
      "age_rating": null,
      "genre": null,
      "original_page_url": "https://tv8.lk21official.cc//drift-2026"
    },
    {
      "id": "6b85b870-a11e-44bf-80a7-6f0691ce2118",
      "title": "Project Y",
      "original_title": null,
      "thumbnail": "https://poster.lk21.party/wp-content/uploads/2026/02/film-project-y-2025-lk21.jpg.webp",
      "synopsis": null,
      "rating": 6,
      "duration": null,
      "year": 2025,
      "date_published": null,
      "label_quality": "CAM",
      "age_rating": null,
      "genre": null,
      "original_page_url": "https://tv8.lk21official.cc//project-y-2025"
    },
    {
      "id": "7cfbc738-ecc1-4883-bb17-9152e14daacb",
      "title": "In Cold Light",
      "original_title": null,
      "thumbnail": "https://poster.lk21.party/wp-content/uploads/2026/02/film-cold-light-2025-lk21.jpg.webp",
      "synopsis": null,
      "rating": 5.3,
      "duration": null,
      "year": 2025,
      "date_published": null,
      "label_quality": "HD",
      "age_rating": null,
      "genre": null,
      "original_page_url": "https://tv8.lk21official.cc//cold-light-2025"
    },
    {
      "id": "1dc8e27e-49eb-4e98-aea3-1db09dbf7670",
      "title": "No-See-Ums",
      "original_title": null,
      "thumbnail": "https://poster.lk21.party/wp-content/uploads/2026/02/film-no-see-ums-2025-lk21.jpg.webp",
      "synopsis": null,
      "rating": 6,
      "duration": null,
      "year": 2025,
      "date_published": null,
      "label_quality": "HD",
      "age_rating": null,
      "genre": null,
      "original_page_url": "https://tv8.lk21official.cc//no-see-ums-2025"
    },
    {
      "id": "095cbae7-4e81-4cd1-8652-009c3e123033",
      "title": "Kaiju Glam Metal Shark Attack",
      "original_title": null,
      "thumbnail": "https://poster.lk21.party/wp-content/uploads/2026/02/film-kaiju-glam-metal-shark-attack-2024-lk21.jpg.webp",
      "synopsis": null,
      "rating": 3,
      "duration": null,
      "year": 2024,
      "date_published": null,
      "label_quality": "HD",
      "age_rating": null,
      "genre": null,
      "original_page_url": "https://tv8.lk21official.cc//kaiju-glam-metal-shark-attack-2024"
    },
    {
      "id": "a0d96351-d356-4705-b3d3-7ada1762ab53",
      "title": "Asha",
      "original_title": null,
      "thumbnail": "https://poster.lk21.party/wp-content/uploads/2026/02/film-asha-2025-lk21.jpg.webp",
      "synopsis": null,
      "rating": null,
      "duration": null,
      "year": 2025,
      "date_published": null,
      "label_quality": "HD",
      "age_rating": null,
      "genre": null,
      "original_page_url": "https://tv8.lk21official.cc//asha-2025"
    },
    {
      "id": "dee0a0d9-50ab-41ae-bae5-1c3822824db5",
      "title": "Honey",
      "original_title": null,
      "thumbnail": "https://poster.lk21.party/wp-content/uploads/2026/02/film-honey-2026-lk21.jpg.webp",
      "synopsis": null,
      "rating": null,
      "duration": null,
      "year": 2026,
      "date_published": null,
      "label_quality": "HD",
      "age_rating": null,
      "genre": null,
      "original_page_url": "https://tv8.lk21official.cc//honey-2026"
    },
    {
      "id": "cf578e00-3bbd-467f-8a0a-5d0dadd0dcf3",
      "title": "Badak",
      "original_title": null,
      "thumbnail": "https://poster.lk21.party/wp-content/uploads/2026/02/film-badak-2025-lk21.jpg.webp",
      "synopsis": null,
      "rating": 8,
      "duration": null,
      "year": 2025,
      "date_published": null,
      "label_quality": "HD",
      "age_rating": null,
      "genre": null,
      "original_page_url": "https://tv8.lk21official.cc//badak-2025"
    },
    {
      "id": "bc131ae5-63a1-4f1b-93ef-d2bb41058d9c",
      "title": "The War Between",
      "original_title": null,
      "thumbnail": "https://poster.lk21.party/wp-content/uploads/2026/02/film-war-between-2025-lk21.jpg.webp",
      "synopsis": null,
      "rating": 8.7,
      "duration": null,
      "year": 2025,
      "date_published": null,
      "label_quality": "HD",
      "age_rating": null,
      "genre": null,
      "original_page_url": "https://tv8.lk21official.cc//war-between-2025"
    },
    {
      "id": "ab9b5c0c-371a-4c58-bae6-76c98de685d8",
      "title": "The Bluff",
      "original_title": null,
      "thumbnail": "https://poster.lk21.party/wp-content/uploads/2026/02/film-bluff-2026-lk21.jpg.webp",
      "synopsis": null,
      "rating": 5.4,
      "duration": null,
      "year": 2026,
      "date_published": null,
      "label_quality": "HD",
      "age_rating": null,
      "genre": null,
      "original_page_url": "https://tv8.lk21official.cc//bluff-2026"
    },
    {
      "id": "0def17bd-e31b-4c53-af46-9452ac263117",
      "title": "Shelter",
      "original_title": null,
      "thumbnail": "https://poster.lk21.party/wp-content/uploads/2026/02/film-shelter-2026-lk21.jpg.webp",
      "synopsis": null,
      "rating": 7,
      "duration": null,
      "year": 2026,
      "date_published": null,
      "label_quality": "HD",
      "age_rating": null,
      "genre": null,
      "original_page_url": "https://tv8.lk21official.cc//shelter-2026"
    },
    {
      "id": "ed48990d-f338-43c1-831f-a0e4074e784a",
      "title": "Unexpected Family",
      "original_title": null,
      "thumbnail": "https://poster.lk21.party/wp-content/uploads/2026/02/film-unexpected-family-2026-lk21.jpg.webp",
      "synopsis": null,
      "rating": 7.8,
      "duration": null,
      "year": 2026,
      "date_published": null,
      "label_quality": "HD",
      "age_rating": null,
      "genre": null,
      "original_page_url": "https://tv8.lk21official.cc//unexpected-family-2026"
    },
    {
      "id": "c3c19cb7-3cfe-4328-814d-9d41d1cbe715",
      "title": "I Am Mary Jo Buttafuoco",
      "original_title": null,
      "thumbnail": "https://poster.lk21.party/wp-content/uploads/2026/02/film-i-am-mary-jo-buttafuoco-2026-lk21.jpg.webp",
      "synopsis": null,
      "rating": null,
      "duration": null,
      "year": 2026,
      "date_published": null,
      "label_quality": "HD",
      "age_rating": null,
      "genre": null,
      "original_page_url": "https://tv8.lk21official.cc//i-am-mary-jo-buttafuoco-2026"
    },
    {
      "id": "a50ee97f-732a-4012-8d41-c02420e143c2",
      "title": "Calle Malaga",
      "original_title": null,
      "thumbnail": "https://poster.lk21.party/wp-content/uploads/2026/02/film-calle-malaga-2025-lk21.jpg.webp",
      "synopsis": null,
      "rating": 6.3,
      "duration": null,
      "year": 2025,
      "date_published": null,
      "label_quality": "HD",
      "age_rating": null,
      "genre": null,
      "original_page_url": "https://tv8.lk21official.cc//calle-malaga-2025"
    },
    {
      "id": "d1aa37f3-991f-49db-a1ff-e8a5f68955c1",
      "title": "Blood Barn",
      "original_title": null,
      "thumbnail": "https://poster.lk21.party/wp-content/uploads/2026/02/film-blood-barn-2025-lk21.jpg.webp",
      "synopsis": null,
      "rating": null,
      "duration": null,
      "year": 2025,
      "date_published": null,
      "label_quality": "HD",
      "age_rating": null,
      "genre": null,
      "original_page_url": "https://tv8.lk21official.cc//blood-barn-2025"
    },
    {
      "id": "c518055b-1f1f-40d9-b6cd-4ccf90220af2",
      "title": "Anaconda: Blood Coil",
      "original_title": null,
      "thumbnail": "https://poster.lk21.party/wp-content/uploads/2026/02/film-anaconda-blood-coil-2026-lk21.jpg.webp",
      "synopsis": null,
      "rating": null,
      "duration": null,
      "year": 2026,
      "date_published": null,
      "label_quality": "HD",
      "age_rating": null,
      "genre": null,
      "original_page_url": "https://tv8.lk21official.cc//anaconda-blood-coil-2026"
    },
    {
      "id": "a35382e9-52bd-4afb-8fcc-ce0dafe3ebbe",
      "title": "Vyprobuvalnyi Termin (Trial Period)",
      "original_title": null,
      "thumbnail": "https://poster.lk21.party/wp-content/uploads/2026/02/film-vyprobuvalnyi-termin-trial-period-2026-lk21.jpg.webp",
      "synopsis": null,
      "rating": null,
      "duration": null,
      "year": 2026,
      "date_published": null,
      "label_quality": "HD",
      "age_rating": null,
      "genre": null,
      "original_page_url": "https://tv8.lk21official.cc//vyprobuvalnyi-termin-trial-period-2026"
    },
    {
      "id": "96cd038e-caac-43b9-92a9-92b63b219273",
      "title": "Pupa",
      "original_title": null,
      "thumbnail": "https://poster.lk21.party/wp-content/uploads/2026/02/film-pupa-2026-lk21.jpg.webp",
      "synopsis": null,
      "rating": 7.5,
      "duration": null,
      "year": 2026,
      "date_published": null,
      "label_quality": "HD",
      "age_rating": null,
      "genre": null,
      "original_page_url": "https://tv8.lk21official.cc//pupa-2026"
    },
    {
      "id": "667dbf3c-b31e-4571-b02c-9676b98741fc",
      "title": "Vanaveera",
      "original_title": null,
      "thumbnail": "https://poster.lk21.party/wp-content/uploads/2026/02/film-vanaveera-2026-lk21.jpg.webp",
      "synopsis": null,
      "rating": 6,
      "duration": null,
      "year": 2026,
      "date_published": null,
      "label_quality": "HD",
      "age_rating": null,
      "genre": null,
      "original_page_url": "https://tv8.lk21official.cc//vanaveera-2026"
    },
    {
      "id": "d76e8ffd-2f78-4dbc-a2b8-c1074806b2ac",
      "title": "Arva (Orphan)",
      "original_title": null,
      "thumbnail": "https://poster.lk21.party/wp-content/uploads/2026/02/film-arva-orphan-2025-lk21.jpg.webp",
      "synopsis": null,
      "rating": null,
      "duration": null,
      "year": 2025,
      "date_published": null,
      "label_quality": "HD",
      "age_rating": null,
      "genre": null,
      "original_page_url": "https://tv8.lk21official.cc//arva-orphan-2025"
    },
    {
      "id": "56205a54-62ae-4f2c-af21-be62f479dce6",
      "title": "Sri Chidambaram",
      "original_title": null,
      "thumbnail": "https://poster.lk21.party/wp-content/uploads/2026/02/film-sri-chidambaram-2026-lk21.jpg.webp",
      "synopsis": null,
      "rating": null,
      "duration": null,
      "year": 2026,
      "date_published": null,
      "label_quality": "HD",
      "age_rating": null,
      "genre": null,
      "original_page_url": "https://tv8.lk21official.cc//sri-chidambaram-2026"
    }
  ],
  "pagination": {
    "current_page": 1,
    "total_page": 1131,
    "total_items": 27144,
    "has_next": true,
    "has_prev": false,
    "next_page_url": "https://tv8.lk21official.cc/latest/page/2",
    "prev_page_url": null
  }
}
