{
  "movies": [
    {
      "id": "7fb4c088-ae3b-48c3-a31e-c71103ced00d",
      "title": "Anaconda: Blood Coil",
      "original_title": null,
      "thumbnail": "https://poster.lk21.party/wp-content/uploads/2026/02/film-anaconda-blood-coil-2026-lk21.jpg.webp",
      "synopsis": null,
      "rating": null,
      "duration": 71,
      "year": 2026,
      "date_published": null,
      "label_quality": "HD",
      "genre": null,
      "original_page_url": "https://tv8.lk21official.cc/anaconda-blood-coil-2026"
    },
    {
      "id": "f3fc09b2-3f0f-435c-a699-9d6e234e330a",
      "title": "The Dreadful",
      "original_title": null,
      "thumbnail": "https://poster.lk21.party/wp-content/uploads/2026/02/film-dreadful-2026-lk21.jpg.webp",
      "synopsis": null,
      "rating": 7.3,
      "duration": 94,
      "year": 2026,
      "date_published": null,
      "label_quality": "HD",
      "genre": null,
      "original_page_url": "https://tv8.lk21official.cc/dreadful-2026"
    },
    {
      "id": "5d3c9ca5-041f-4369-91ac-432a55dce100",
      "title": "Within the Pines",
      "original_title": null,
      "thumbnail": "https://poster.lk21.party/wp-content/uploads/2026/02/film-within-pines-2026-lk21.jpg.webp",
      "synopsis": null,
      "rating": null,
      "duration": 73,
      "year": 2026,
      "date_published": null,
      "label_quality": "HD",
      "genre": null,
      "original_page_url": "https://tv8.lk21official.cc/within-pines-2026"
    },
    {
      "id": "2b1ee8e5-ee64-4185-bdb1-f95984027aa9",
      "title": "28 Years Later: The Bone Temple",
      "original_title": null,
      "thumbnail": "https://poster.lk21.party/wp-content/uploads/2026/01/film-28-years-later-bone-temple-2026-lk21.jpg.webp",
      "synopsis": null,
      "rating": 7.2,
      "duration": 109,
      "year": 2026,
      "date_published": null,
      "label_quality": "HD",
      "genre": null,
      "original_page_url": "https://tv8.lk21official.cc/28-years-later-bone-temple-2026"
    },
    {
      "id": "bb44bf1e-3d83-4252-96db-4817093eddc9",
      "title": "The Fairfield County Four",
      "original_title": null,
      "thumbnail": "https://poster.lk21.party/wp-content/uploads/2026/02/film-fairfield-county-four-2026-lk21.jpg.webp",
      "synopsis": null,
      "rating": 5,
      "duration": 76,
      "year": 2026,
      "date_published": null,
      "label_quality": "HD",
      "genre": null,
      "original_page_url": "https://tv8.lk21official.cc/fairfield-county-four-2026"
    },
    {
      "id": "9742af42-8ee3-40bd-a3c4-745c3fa6ac2a",
      "title": "The Raja Saab",
      "original_title": null,
      "thumbnail": "https://poster.lk21.party/wp-content/uploads/2026/02/film-raja-saab-2026-lk21.jpg.webp",
      "synopsis": null,
      "rating": 5.6,
      "duration": 180,
      "year": 2026,
      "date_published": null,
      "label_quality": "HD",
      "genre": null,
      "original_page_url": "https://tv8.lk21official.cc/raja-saab-2026"
    },
    {
      "id": "b204b065-5895-4e57-819d-c8335ba9f950",
      "title": "Return to Silent Hill",
      "original_title": null,
      "thumbnail": "https://poster.lk21.party/wp-content/uploads/2026/02/film-return-silent-hill-2026-lk21.jpg.webp",
      "synopsis": null,
      "rating": 5.1,
      "duration": 106,
      "year": 2026,
      "date_published": null,
      "label_quality": "HD",
      "genre": null,
      "original_page_url": "https://tv8.lk21official.cc/return-silent-hill-2026"
    },
    {
      "id": "57ab7685-3033-4074-b851-23ca35311974",
      "title": "New Jersey Devil",
      "original_title": null,
      "thumbnail": "https://poster.lk21.party/wp-content/uploads/2026/02/film-new-jersey-devil-2026-lk21.jpg.webp",
      "synopsis": null,
      "rating": 2,
      "duration": 132,
      "year": 2026,
      "date_published": null,
      "label_quality": "HD",
      "genre": null,
      "original_page_url": "https://tv8.lk21official.cc/new-jersey-devil-2026"
    },
    {
      "id": "cd3a9ac9-cae4-41f7-b824-adca2eb68ad2",
      "title": "Twisted",
      "original_title": null,
      "thumbnail": "https://poster.lk21.party/wp-content/uploads/2026/02/film-twisted-2026-lk21.jpg.webp",
      "synopsis": null,
      "rating": 4.8,
      "duration": 93,
      "year": 2026,
      "date_published": null,
      "label_quality": "HD",
      "genre": null,
      "original_page_url": "https://tv8.lk21official.cc/twisted-2026"
    },
    {
      "id": "a2240be2-735e-49b4-bc79-f5b8640b6152",
      "title": "Best Served Cold",
      "original_title": null,
      "thumbnail": "https://poster.lk21.party/wp-content/uploads/2026/01/film-best-served-cold-2026-lk21.jpg.webp",
      "synopsis": null,
      "rating": null,
      "duration": 98,
      "year": 2026,
      "date_published": null,
      "label_quality": "HD",
      "genre": null,
      "original_page_url": "https://tv8.lk21official.cc/best-served-cold-2026"
    },
    {
      "id": "0617ef51-40b6-4c08-b329-118dacecb9ba",
      "title": "He's Watching You (Black Spines)",
      "original_title": null,
      "thumbnail": "https://poster.lk21.party/wp-content/uploads/2026/01/film-hes-watching-you-black-spines-2026-lk21.jpg.webp",
      "synopsis": null,
      "rating": 8,
      "duration": 102,
      "year": 2026,
      "date_published": null,
      "label_quality": "HD",
      "genre": null,
      "original_page_url": "https://tv8.lk21official.cc/hes-watching-you-black-spines-2026"
    },
    {
      "id": "4af1b0cc-6259-44cd-84c1-347f2d69444c",
      "title": "Killer Whale",
      "original_title": null,
      "thumbnail": "https://poster.lk21.party/wp-content/uploads/2026/01/film-killer-whale-2026-lk21.jpg.webp",
      "synopsis": null,
      "rating": 3.5,
      "duration": 89,
      "year": 2026,
      "date_published": null,
      "label_quality": "HD",
      "genre": null,
      "original_page_url": "https://tv8.lk21official.cc/killer-whale-2026"
    },
    {
      "id": "9aac3cb5-7c2a-40df-8e78-c1ad1cf5de52",
      "title": "The Confession",
      "original_title": null,
      "thumbnail": "https://poster.lk21.party/wp-content/uploads/2026/01/film-confession-2026-lk21.jpg.webp",
      "synopsis": null,
      "rating": 7.2,
      "duration": 87,
      "year": 2026,
      "date_published": null,
      "label_quality": "HD",
      "genre": null,
      "original_page_url": "https://tv8.lk21official.cc/confession-2026"
    },
    {
      "id": "021c4485-0533-4b43-9ed1-c2edd5474dae",
      "title": "Death Name",
      "original_title": null,
      "thumbnail": "https://poster.lk21.party/wp-content/uploads/2026/01/film-death-name-2026-lk21.jpg.webp",
      "synopsis": null,
      "rating": 5.4,
      "duration": 81,
      "year": 2026,
      "date_published": null,
      "label_quality": "SD",
      "genre": null,
      "original_page_url": "https://tv8.lk21official.cc/death-name-2026"
    },
    {
      "id": "af89c01f-dd4b-4af5-a8b7-c4580898f065",
      "title": "Whisper in the dark",
      "original_title": null,
      "thumbnail": "https://poster.lk21.party/wp-content/uploads/2026/01/film-whisper-dark-2026-lk21.jpg.webp",
      "synopsis": null,
      "rating": 3.4,
      "duration": 72,
      "year": 2026,
      "date_published": null,
      "label_quality": "HD",
      "genre": null,
      "original_page_url": "https://tv8.lk21official.cc/whisper-dark-2026"
    },
    {
      "id": "5a4d747c-22dd-4c1b-bbf2-d7f1b76c94b9",
      "title": "Qifarah",
      "original_title": null,
      "thumbnail": "https://poster.lk21.party/wp-content/uploads/2026/02/film-qifarah-2025-lk21.jpg.webp",
      "synopsis": null,
      "rating": 5.5,
      "duration": 95,
      "year": 2025,
      "date_published": null,
      "label_quality": "HD",
      "genre": null,
      "original_page_url": "https://tv8.lk21official.cc/qifarah-2025"
    },
    {
      "id": "0a8f8d47-38b1-4a39-a256-b49e447e8e14",
      "title": "No-See-Ums",
      "original_title": null,
      "thumbnail": "https://poster.lk21.party/wp-content/uploads/2026/02/film-no-see-ums-2025-lk21.jpg.webp",
      "synopsis": null,
      "rating": 6,
      "duration": 80,
      "year": 2025,
      "date_published": null,
      "label_quality": "HD",
      "genre": null,
      "original_page_url": "https://tv8.lk21official.cc/no-see-ums-2025"
    },
    {
      "id": "bc2603d8-f35f-45c6-affc-05de638a2896",
      "title": "Blood Barn",
      "original_title": null,
      "thumbnail": "https://poster.lk21.party/wp-content/uploads/2026/02/film-blood-barn-2025-lk21.jpg.webp",
      "synopsis": null,
      "rating": null,
      "duration": 77,
      "year": 2025,
      "date_published": null,
      "label_quality": "HD",
      "genre": null,
      "original_page_url": "https://tv8.lk21official.cc/blood-barn-2025"
    },
    {
      "id": "589c8b50-3439-4327-986f-4e08ff126c83",
      "title": "Don't Hang Up",
      "original_title": null,
      "thumbnail": "https://poster.lk21.party/wp-content/uploads/2026/02/film-dont-hang-up-2025-lk21.jpg.webp",
      "synopsis": null,
      "rating": 5.8,
      "duration": 87,
      "year": 2025,
      "date_published": null,
      "label_quality": "HD",
      "genre": null,
      "original_page_url": "https://tv8.lk21official.cc/dont-hang-up-2025"
    },
    {
      "id": "fe081c7a-4f3e-4f81-ab78-050d65f47728",
      "title": "Black Phone 2",
      "original_title": null,
      "thumbnail": "https://poster.lk21.party/wp-content/uploads/2025/10/film-black-phone-2-2025-lk21.jpg.webp",
      "synopsis": null,
      "rating": 6.8,
      "duration": 114,
      "year": 2025,
      "date_published": null,
      "label_quality": "HD",
      "genre": null,
      "original_page_url": "https://tv8.lk21official.cc/black-phone-2-2025"
    },
    {
      "id": "9618d945-3440-4980-93e2-3abde13c0568",
      "title": "Eesha",
      "original_title": null,
      "thumbnail": "https://poster.lk21.party/wp-content/uploads/2026/02/film-eesha-2025-lk21.jpg.webp",
      "synopsis": null,
      "rating": 2,
      "duration": 126,
      "year": 2025,
      "date_published": null,
      "label_quality": "HD",
      "genre": null,
      "original_page_url": "https://tv8.lk21official.cc/eesha-2025"
    },
    {
      "id": "1158e73b-b2b3-466c-ad34-282f086defa8",
      "title": "Primate",
      "original_title": null,
      "thumbnail": "https://poster.lk21.party/wp-content/uploads/2026/01/film-primate-2026-lk21.jpg.webp",
      "synopsis": null,
      "rating": 6.6,
      "duration": 92,
      "year": 2025,
      "date_published": null,
      "label_quality": "HD",
      "genre": null,
      "original_page_url": "https://tv8.lk21official.cc/primate-2026"
    },
    {
      "id": "6eba5c22-bdb4-4658-8fc0-3e177809aaad",
      "title": "Evil Nun",
      "original_title": null,
      "thumbnail": "https://poster.lk21.party/wp-content/uploads/2026/02/film-evil-nun-2025-lk21.jpg.webp",
      "synopsis": null,
      "rating": 4.3,
      "duration": 82,
      "year": 2025,
      "date_published": null,
      "label_quality": "HD",
      "genre": null,
      "original_page_url": "https://tv8.lk21official.cc/evil-nun-2025"
    },
    {
      "id": "b041b20c-efad-4bdd-9da3-8a0d36e372bb",
      "title": "The Arborist",
      "original_title": null,
      "thumbnail": "https://poster.lk21.party/wp-content/uploads/2026/02/film-arborist-2025-lk21.jpg.webp",
      "synopsis": null,
      "rating": 4.6,
      "duration": 100,
      "year": 2025,
      "date_published": null,
      "label_quality": "HD",
      "genre": null,
      "original_page_url": "https://tv8.lk21official.cc/arborist-2025"
    }
  ],
  "pagination": {
    "current_page": 1,
    "total_page": 196,
    "total_items": 4704,
    "has_next": true,
    "has_prev": false,
    "next_page_url": "https://tv8.lk21official.cc/genre/horror/page/2",
    "prev_page_url": null
  }
}
