{
  "movies": [
    {
      "id": "88001714-5eaf-4434-95a6-7af2e973e044",
      "title": "The Bluff",
      "original_title": null,
      "thumbnail": "https://poster.lk21.party/wp-content/uploads/2026/02/film-bluff-2026-lk21.jpg.webp",
      "synopsis": null,
      "rating": 5.4,
      "duration": null,
      "year": 2026,
      "date_published": null,
      "label_quality": "HD",
      "age_rating": null,
      "genre": null,
      "original_page_url": "https://tv8.lk21official.cc//bluff-2026"
    },
    {
      "id": "eac1cfaf-7854-448a-a049-29fb38ed8aed",
      "title": "Shelter",
      "original_title": null,
      "thumbnail": "https://poster.lk21.party/wp-content/uploads/2026/02/film-shelter-2026-lk21.jpg.webp",
      "synopsis": null,
      "rating": 7,
      "duration": null,
      "year": 2026,
      "date_published": null,
      "label_quality": "HD",
      "age_rating": null,
      "genre": null,
      "original_page_url": "https://tv8.lk21official.cc//shelter-2026"
    },
    {
      "id": "d6c3d3cd-86e0-4dcd-8a3e-0a779a1df2c1",
      "title": "Vanaveera",
      "original_title": null,
      "thumbnail": "https://poster.lk21.party/wp-content/uploads/2026/02/film-vanaveera-2026-lk21.jpg.webp",
      "synopsis": null,
      "rating": 6,
      "duration": null,
      "year": 2026,
      "date_published": null,
      "label_quality": "HD",
      "age_rating": null,
      "genre": null,
      "original_page_url": "https://tv8.lk21official.cc//vanaveera-2026"
    },
    {
      "id": "1a29e270-f3dc-43aa-997c-ec91ceddf7dd",
      "title": "Reckless",
      "original_title": null,
      "thumbnail": "https://poster.lk21.party/wp-content/uploads/2026/02/film-reckless-2026-lk21.jpg.webp",
      "synopsis": null,
      "rating": 7.6,
      "duration": null,
      "year": 2026,
      "date_published": null,
      "label_quality": "HD",
      "age_rating": null,
      "genre": null,
      "original_page_url": "https://tv8.lk21official.cc//reckless-2026"
    },
    {
      "id": "c58b4e90-b637-4959-b2c1-b8689e4f0816",
      "title": "Lazarus: The Awakening",
      "original_title": null,
      "thumbnail": "https://poster.lk21.party/wp-content/uploads/2026/02/film-lazarus-awakening-2026-lk21.jpg.webp",
      "synopsis": null,
      "rating": null,
      "duration": null,
      "year": 2026,
      "date_published": null,
      "label_quality": "HD",
      "age_rating": null,
      "genre": null,
      "original_page_url": "https://tv8.lk21official.cc//lazarus-awakening-2026"
    },
    {
      "id": "9f45b1a5-f25f-422b-9cbe-d32c1f65051e",
      "title": "One Mile",
      "original_title": null,
      "thumbnail": "https://poster.lk21.party/wp-content/uploads/2026/02/film-one-mile-2026-lk21.jpg.webp",
      "synopsis": null,
      "rating": 5.8,
      "duration": null,
      "year": 2026,
      "date_published": null,
      "label_quality": "HD",
      "age_rating": null,
      "genre": null,
      "original_page_url": "https://tv8.lk21official.cc//one-mile-2026"
    },
    {
      "id": "8e82a797-f624-48ed-942f-358bc3b0b53c",
      "title": "Chatha Pacha",
      "original_title": null,
      "thumbnail": "https://poster.lk21.party/wp-content/uploads/2026/02/film-chatha-pacha-2026-lk21.jpg.webp",
      "synopsis": null,
      "rating": 7.9,
      "duration": null,
      "year": 2026,
      "date_published": null,
      "label_quality": "HD",
      "age_rating": null,
      "genre": null,
      "original_page_url": "https://tv8.lk21official.cc//chatha-pacha-2026"
    },
    {
      "id": "bc894ae7-74ac-4969-9047-ae18c5178fa0",
      "title": "Hellfire",
      "original_title": null,
      "thumbnail": "https://poster.lk21.party/wp-content/uploads/2026/02/film-hellfire-2026-lk21.jpg.webp",
      "synopsis": null,
      "rating": 7,
      "duration": null,
      "year": 2026,
      "date_published": null,
      "label_quality": "HD",
      "age_rating": null,
      "genre": null,
      "original_page_url": "https://tv8.lk21official.cc//hellfire-2026"
    },
    {
      "id": "e3ce6709-3fbd-4915-9ec4-032564c21a92",
      "title": "Mercy",
      "original_title": null,
      "thumbnail": "https://poster.lk21.party/wp-content/uploads/2026/02/film-mercy-2026-lk21.jpg.webp",
      "synopsis": null,
      "rating": 6.7,
      "duration": null,
      "year": 2026,
      "date_published": null,
      "label_quality": "HD",
      "age_rating": null,
      "genre": null,
      "original_page_url": "https://tv8.lk21official.cc//mercy-2026"
    },
    {
      "id": "9755c367-809e-45c7-94b1-d684a77691af",
      "title": "Hands",
      "original_title": null,
      "thumbnail": "https://poster.lk21.party/wp-content/uploads/2026/02/film-hands-2026-lk21.jpg.webp",
      "synopsis": null,
      "rating": 2,
      "duration": null,
      "year": 2026,
      "date_published": null,
      "label_quality": "HD",
      "age_rating": null,
      "genre": null,
      "original_page_url": "https://tv8.lk21official.cc//hands-2026"
    },
    {
      "id": "4137e4d8-f55e-42ff-b8fc-dedff1677d7e",
      "title": "Wild London",
      "original_title": null,
      "thumbnail": "https://poster.lk21.party/wp-content/uploads/2026/02/film-wild-london-2026-lk21.jpg.webp",
      "synopsis": null,
      "rating": 8.2,
      "duration": null,
      "year": 2026,
      "date_published": null,
      "label_quality": "HD",
      "age_rating": null,
      "genre": null,
      "original_page_url": "https://tv8.lk21official.cc//wild-london-2026"
    },
    {
      "id": "c9401fe0-1b4b-413e-8d40-4872a9bc1611",
      "title": "State of Fear",
      "original_title": null,
      "thumbnail": "https://poster.lk21.party/wp-content/uploads/2026/02/film-state-fear-2026-lk21.jpg.webp",
      "synopsis": null,
      "rating": 4.5,
      "duration": null,
      "year": 2026,
      "date_published": null,
      "label_quality": "HD",
      "age_rating": null,
      "genre": null,
      "original_page_url": "https://tv8.lk21official.cc//state-fear-2026"
    },
    {
      "id": "847e151d-c7a4-4f25-b74d-3d25ea29d4e1",
      "title": "Kamen Rider Eins with Girls Remix",
      "original_title": null,
      "thumbnail": "https://poster.lk21.party/wp-content/uploads/2026/02/film-kamen-rider-eins-girls-remix-2026-lk21.jpg.webp",
      "synopsis": null,
      "rating": null,
      "duration": null,
      "year": 2026,
      "date_published": null,
      "label_quality": "HD",
      "age_rating": null,
      "genre": null,
      "original_page_url": "https://tv8.lk21official.cc//kamen-rider-eins-girls-remix-2026"
    },
    {
      "id": "0bf96eab-f8cf-4ffb-a04c-3de50d5ae395",
      "title": "Vaa Vaathiyaar",
      "original_title": null,
      "thumbnail": "https://poster.lk21.party/wp-content/uploads/2026/02/film-vaa-vaathiyaar-2026-lk21.jpg.webp",
      "synopsis": null,
      "rating": 5,
      "duration": null,
      "year": 2026,
      "date_published": null,
      "label_quality": "HD",
      "age_rating": null,
      "genre": null,
      "original_page_url": "https://tv8.lk21official.cc//vaa-vaathiyaar-2026"
    },
    {
      "id": "9f84f608-8901-45df-a749-ac39043291b4",
      "title": "TTT: Thalaivar Thambi Thalaimaiyil",
      "original_title": null,
      "thumbnail": "https://poster.lk21.party/wp-content/uploads/2026/02/film-ttt-thalaivar-thambi-thalaimaiyil-2026-lk21.jpg.webp",
      "synopsis": null,
      "rating": 7.5,
      "duration": null,
      "year": 2026,
      "date_published": null,
      "label_quality": "HD",
      "age_rating": null,
      "genre": null,
      "original_page_url": "https://tv8.lk21official.cc//ttt-thalaivar-thambi-thalaimaiyil-2026"
    },
    {
      "id": "44d2ef8d-7eed-4c8a-9141-7ed99ed94669",
      "title": "Parasakthi",
      "original_title": null,
      "thumbnail": "https://poster.lk21.party/wp-content/uploads/2026/02/film-parasakthi-2026-lk21.jpg.webp",
      "synopsis": null,
      "rating": 6,
      "duration": null,
      "year": 2026,
      "date_published": null,
      "label_quality": "HD",
      "age_rating": null,
      "genre": null,
      "original_page_url": "https://tv8.lk21official.cc//parasakthi-2026"
    },
    {
      "id": "ccbd831d-7e15-4435-9cda-5f3f6dcab794",
      "title": "Mana ShankaraVaraprasad Garu",
      "original_title": null,
      "thumbnail": "https://poster.lk21.party/wp-content/uploads/2026/02/film-mana-shankaravaraprasad-garu-2026-lk21.jpg.webp",
      "synopsis": null,
      "rating": 6.5,
      "duration": null,
      "year": 2026,
      "date_published": null,
      "label_quality": "HD",
      "age_rating": null,
      "genre": null,
      "original_page_url": "https://tv8.lk21official.cc//mana-shankaravaraprasad-garu-2026"
    },
    {
      "id": "b366e9b4-fa02-4c91-8371-ec04e2d0c953",
      "title": "Ikkis",
      "original_title": null,
      "thumbnail": "https://poster.lk21.party/wp-content/uploads/2026/02/film-ikkis-2026-lk21.jpg.webp",
      "synopsis": null,
      "rating": 7,
      "duration": null,
      "year": 2026,
      "date_published": null,
      "label_quality": "HD",
      "age_rating": null,
      "genre": null,
      "original_page_url": "https://tv8.lk21official.cc//ikkis-2026"
    },
    {
      "id": "f1bb4ca2-341e-43a2-8e36-28ed31a066a5",
      "title": "The Raja Saab",
      "original_title": null,
      "thumbnail": "https://poster.lk21.party/wp-content/uploads/2026/02/film-raja-saab-2026-lk21.jpg.webp",
      "synopsis": null,
      "rating": 5.6,
      "duration": null,
      "year": 2026,
      "date_published": null,
      "label_quality": "HD",
      "age_rating": null,
      "genre": null,
      "original_page_url": "https://tv8.lk21official.cc//raja-saab-2026"
    },
    {
      "id": "b2b73b9f-2156-4a14-b564-82e41875641d",
      "title": "The Wrecking Crew",
      "original_title": null,
      "thumbnail": "https://poster.lk21.party/wp-content/uploads/2026/02/film-wrecking-crew-2026-lk21.jpg.webp",
      "synopsis": null,
      "rating": 6.5,
      "duration": null,
      "year": 2026,
      "date_published": null,
      "label_quality": "HD",
      "age_rating": null,
      "genre": null,
      "original_page_url": "https://tv8.lk21official.cc//wrecking-crew-2026"
    },
    {
      "id": "c83a3476-7e77-4bec-af35-2bd72a474fc4",
      "title": "Speed Faster",
      "original_title": null,
      "thumbnail": "https://poster.lk21.party/wp-content/uploads/2026/02/film-speed-faster-2026-lk21.jpg.webp",
      "synopsis": null,
      "rating": 8,
      "duration": null,
      "year": 2026,
      "date_published": null,
      "label_quality": "HD",
      "age_rating": null,
      "genre": null,
      "original_page_url": "https://tv8.lk21official.cc//speed-faster-2026"
    },
    {
      "id": "f33a0266-32df-4496-a45f-305851709667",
      "title": "Greenland 2: Migration",
      "original_title": null,
      "thumbnail": "https://poster.lk21.party/wp-content/uploads/2026/01/film-greenland-2-migration-2026-lk21.jpg.webp",
      "synopsis": null,
      "rating": 6.4,
      "duration": null,
      "year": 2026,
      "date_published": null,
      "label_quality": "HD",
      "age_rating": null,
      "genre": null,
      "original_page_url": "https://tv8.lk21official.cc//greenland-2-migration-2026"
    },
    {
      "id": "bf799947-a4d6-426d-a6a2-12a0d1c371b3",
      "title": "Killer Whale",
      "original_title": null,
      "thumbnail": "https://poster.lk21.party/wp-content/uploads/2026/01/film-killer-whale-2026-lk21.jpg.webp",
      "synopsis": null,
      "rating": 3.5,
      "duration": null,
      "year": 2026,
      "date_published": null,
      "label_quality": "HD",
      "age_rating": null,
      "genre": null,
      "original_page_url": "https://tv8.lk21official.cc//killer-whale-2026"
    },
    {
      "id": "efb9f47c-4326-4c8f-bd83-8e0ec9c544ab",
      "title": "The Rip",
      "original_title": null,
      "thumbnail": "https://poster.lk21.party/wp-content/uploads/2026/01/film-rip-2026-lk21.jpg.webp",
      "synopsis": null,
      "rating": 6.9,
      "duration": null,
      "year": 2026,
      "date_published": null,
      "label_quality": "HD",
      "age_rating": null,
      "genre": null,
      "original_page_url": "https://tv8.lk21official.cc//rip-2026"
    }
  ],
  "pagination": {
    "current_page": 1,
    "total_page": 256,
    "total_items": 6144,
    "has_next": true,
    "has_prev": false,
    "next_page_url": "https://tv8.lk21official.cc/genre/action/page/2",
    "prev_page_url": null
  }
}
