{
  "movies": [
    {
      "id": "db346bf9-4420-494f-93df-fe1f1767f5e4",
      "title": "The Mastermind",
      "original_title": null,
      "thumbnail": "https://poster.lk21.party/wp-content/uploads/2025/12/film-mastermind-2025-lk21.jpg.webp",
      "synopsis": null,
      "rating": 5.8,
      "duration": 110,
      "year": 2025,
      "date_published": null,
      "label_quality": "HD",
      "genre": null,
      "original_page_url": "https://tv8.lk21official.cc/mastermind-2025"
    },
    {
      "id": "600d860b-8ce7-4e1e-878a-2c593eaac2cb",
      "title": "Caught Stealing",
      "original_title": null,
      "thumbnail": "https://poster.lk21.party/wp-content/uploads/2025/10/film-caught-stealing-2025-lk21.jpg.webp",
      "synopsis": null,
      "rating": 6.9,
      "duration": 107,
      "year": 2025,
      "date_published": null,
      "label_quality": "HD",
      "genre": null,
      "original_page_url": "https://tv8.lk21official.cc/caught-stealing-2025"
    },
    {
      "id": "a372732a-ed2c-4fa1-8a4f-b206701c8d4c",
      "title": "Now You See Me: Now You Don't",
      "original_title": null,
      "thumbnail": "https://poster.lk21.party/wp-content/uploads/2025/11/film-now-you-see-me-now-you-dont-2025-lk21.jpg.webp",
      "synopsis": null,
      "rating": 6.5,
      "duration": 113,
      "year": 2025,
      "date_published": null,
      "label_quality": "HD",
      "genre": null,
      "original_page_url": "https://tv8.lk21official.cc/now-you-see-me-now-you-dont-2025"
    },
    {
      "id": "12250f86-5f6c-476a-a556-f6a01ed6d359",
      "title": "Black Phone 2",
      "original_title": null,
      "thumbnail": "https://poster.lk21.party/wp-content/uploads/2025/10/film-black-phone-2-2025-lk21.jpg.webp",
      "synopsis": null,
      "rating": 6.8,
      "duration": 114,
      "year": 2025,
      "date_published": null,
      "label_quality": "HD",
      "genre": null,
      "original_page_url": "https://tv8.lk21official.cc/black-phone-2-2025"
    },
    {
      "id": "b3a219a3-8737-4e9b-9e5a-289a382143e5",
      "title": "Blue Moon",
      "original_title": null,
      "thumbnail": "https://poster.lk21.party/wp-content/uploads/2025/11/film-blue-moon-2025-lk21.jpg.webp",
      "synopsis": null,
      "rating": 6.7,
      "duration": 101,
      "year": 2025,
      "date_published": null,
      "label_quality": "HD",
      "genre": null,
      "original_page_url": "https://tv8.lk21official.cc/blue-moon-2025"
    },
    {
      "id": "3d696448-8a9e-4fe1-8346-ddea6f257928",
      "title": "Roofman",
      "original_title": null,
      "thumbnail": "https://poster.lk21.party/wp-content/uploads/2025/11/film-roofman-2025-lk21.jpg.webp",
      "synopsis": null,
      "rating": 7.2,
      "duration": 126,
      "year": 2025,
      "date_published": null,
      "label_quality": "HD",
      "genre": null,
      "original_page_url": "https://tv8.lk21official.cc/roofman-2025"
    },
    {
      "id": "d927aa84-5577-4771-9eab-812f5b2ae729",
      "title": "Eddington",
      "original_title": null,
      "thumbnail": "https://poster.lk21.party/wp-content/uploads/2025/08/film-eddington-lk21-d21.jpg.webp",
      "synopsis": null,
      "rating": 6.4,
      "duration": 148,
      "year": 2025,
      "date_published": null,
      "label_quality": "HD",
      "genre": null,
      "original_page_url": "https://tv8.lk21official.cc/eddington"
    },
    {
      "id": "b30d8979-09fc-4473-8a4e-e769a6dbdb8c",
      "title": "The Shadow's Edge (Bu feng zhui ying aka)",
      "original_title": null,
      "thumbnail": "https://poster.lk21.party/wp-content/uploads/2025/08/film-bu-feng-zhui-ying-2025-lk21-4.jpg.webp",
      "synopsis": null,
      "rating": 7.2,
      "duration": 142,
      "year": 2025,
      "date_published": null,
      "label_quality": "HD",
      "genre": null,
      "original_page_url": "https://tv8.lk21official.cc/bu-feng-zhui-ying-2025"
    },
    {
      "id": "7b5537af-2108-45ce-aa53-82c2f37240a6",
      "title": "The Forbidden City",
      "original_title": null,
      "thumbnail": "https://poster.lk21.party/wp-content/uploads/2026/02/film-forbidden-city-2025-lk21.jpg.webp",
      "synopsis": null,
      "rating": 7,
      "duration": 138,
      "year": 2025,
      "date_published": null,
      "label_quality": "HD",
      "genre": null,
      "original_page_url": "https://tv8.lk21official.cc/forbidden-city-2025"
    },
    {
      "id": "ba278242-79f9-418e-a02a-3bf95a15edb5",
      "title": "Sisu: Road to Revenge",
      "original_title": null,
      "thumbnail": "https://poster.lk21.party/wp-content/uploads/2025/11/film-sisu-2-2025-lk21.jpg.webp",
      "synopsis": null,
      "rating": 7.4,
      "duration": 89,
      "year": 2025,
      "date_published": null,
      "label_quality": "HD",
      "genre": null,
      "original_page_url": "https://tv8.lk21official.cc/sisu-2-2025"
    },
    {
      "id": "002834df-e0ca-4455-9680-81448b7acfb7",
      "title": "Eternity",
      "original_title": null,
      "thumbnail": "https://poster.lk21.party/wp-content/uploads/2025/12/film-eternity-2025-lk21.jpg.webp",
      "synopsis": null,
      "rating": 7,
      "duration": 115,
      "year": 2025,
      "date_published": null,
      "label_quality": "HD",
      "genre": null,
      "original_page_url": "https://tv8.lk21official.cc/eternity-2025"
    },
    {
      "id": "f830bbde-e977-4b6c-b8af-bab7138e69cc",
      "title": "Predator: Badlands",
      "original_title": null,
      "thumbnail": "https://poster.lk21.party/wp-content/uploads/2025/11/film-predator-badlands-2025-lk21.jpg.webp",
      "synopsis": null,
      "rating": 7.8,
      "duration": 107,
      "year": 2025,
      "date_published": null,
      "label_quality": "HD",
      "genre": null,
      "original_page_url": "https://tv8.lk21official.cc/predator-badlands-2025"
    },
    {
      "id": "eb8850d0-9bcb-44af-b985-42c1c5fa23a6",
      "title": "Den of Thieves: Pantera",
      "original_title": null,
      "thumbnail": "https://poster.lk21.party/wp-content/uploads/2025/01/film-den-of-thieves-2-pantera-2025-lk21-d21.jpg.webp",
      "synopsis": null,
      "rating": 6.6,
      "duration": 144,
      "year": 2025,
      "date_published": null,
      "label_quality": "HD",
      "genre": null,
      "original_page_url": "https://tv8.lk21official.cc/den-of-thieves-2-pantera-2025"
    },
    {
      "id": "e8dd3485-dc48-4e5f-b944-1ed3f859d9fe",
      "title": "The Tasters",
      "original_title": null,
      "thumbnail": "https://poster.lk21.party/wp-content/uploads/2026/02/film-tasters-2025-lk21.jpg.webp",
      "synopsis": null,
      "rating": 6.6,
      "duration": 124,
      "year": 2025,
      "date_published": null,
      "label_quality": "HD",
      "genre": null,
      "original_page_url": "https://tv8.lk21official.cc/tasters-2025"
    },
    {
      "id": "6e79d8c3-6238-4ca3-9314-654441b235c5",
      "title": "Dead to Rights",
      "original_title": null,
      "thumbnail": "https://poster.lk21.party/wp-content/uploads/2025/10/film-dead-rights-2025-lk21.jpg.webp",
      "synopsis": null,
      "rating": 8,
      "duration": 137,
      "year": 2025,
      "date_published": null,
      "label_quality": "HD",
      "genre": null,
      "original_page_url": "https://tv8.lk21official.cc/dead-rights-2025"
    },
    {
      "id": "b3411e91-e84f-477d-b2f6-27e924db711c",
      "title": "In die Sonne schauen (Sound of Falling)",
      "original_title": null,
      "thumbnail": "https://poster.lk21.party/wp-content/uploads/2026/01/film-die-sonne-schauen-2025-lk21.jpg.webp",
      "synopsis": null,
      "rating": 7.1,
      "duration": 149,
      "year": 2025,
      "date_published": null,
      "label_quality": "HD",
      "genre": null,
      "original_page_url": "https://tv8.lk21official.cc/die-sonne-schauen-2025"
    },
    {
      "id": "e428800a-5e50-49f8-97e7-36447c20a49a",
      "title": "Barren Land",
      "original_title": null,
      "thumbnail": "https://poster.lk21.party/wp-content/uploads/2026/01/film-barren-land-2025-lk21.jpg.webp",
      "synopsis": null,
      "rating": 6.3,
      "duration": 101,
      "year": 2025,
      "date_published": null,
      "label_quality": "HD",
      "genre": null,
      "original_page_url": "https://tv8.lk21official.cc/barren-land-2025"
    },
    {
      "id": "32a1613c-a963-4828-b5ce-938b6a771728",
      "title": "Les Orphelins (The Orphans)",
      "original_title": null,
      "thumbnail": "https://poster.lk21.party/wp-content/uploads/2026/01/film-les-orphelins-orphans-2025-lk21.jpg.webp",
      "synopsis": null,
      "rating": 5.3,
      "duration": 95,
      "year": 2025,
      "date_published": null,
      "label_quality": "HD",
      "genre": null,
      "original_page_url": "https://tv8.lk21official.cc/les-orphelins-orphans-2025"
    },
    {
      "id": "60d93665-9d1f-416e-956d-9f6e19db53e0",
      "title": "Good Boy",
      "original_title": null,
      "thumbnail": "https://poster.lk21.party/wp-content/uploads/2025/10/film-good-boy-movie-2025-lk21.jpg.webp",
      "synopsis": null,
      "rating": 6.1,
      "duration": 74,
      "year": 2025,
      "date_published": null,
      "label_quality": "HD",
      "genre": null,
      "original_page_url": "https://tv8.lk21official.cc/good-boy-movie-2025"
    },
    {
      "id": "1672ba46-17b8-4b2f-a11a-4d030eaca431",
      "title": "Sew Torn",
      "original_title": null,
      "thumbnail": "https://poster.lk21.party/wp-content/uploads/2025/06/film-sew-torn-2024-lk21-d21.jpg.webp",
      "synopsis": null,
      "rating": 6,
      "duration": 96,
      "year": 2025,
      "date_published": null,
      "label_quality": "HD",
      "genre": null,
      "original_page_url": "https://tv8.lk21official.cc/sew-torn-2024"
    },
    {
      "id": "d9e8f334-6c5d-4f2d-af87-aa68e680c2fe",
      "title": "Xeno",
      "original_title": null,
      "thumbnail": "https://poster.lk21.party/wp-content/uploads/2025/10/film-xeno-2025-lk21.jpg.webp",
      "synopsis": null,
      "rating": 5.1,
      "duration": 104,
      "year": 2025,
      "date_published": null,
      "label_quality": "HD",
      "genre": null,
      "original_page_url": "https://tv8.lk21official.cc/xeno-2025"
    },
    {
      "id": "535bf429-f676-4de1-9a7d-d96edc9cf544",
      "title": "Samurai Fury: Muromachi Burai",
      "original_title": null,
      "thumbnail": "https://poster.lk21.party/wp-content/uploads/2025/12/film-samurai-fury-muromachi-burai-2025-lk21.jpg.webp",
      "synopsis": null,
      "rating": 6,
      "duration": 135,
      "year": 2025,
      "date_published": null,
      "label_quality": "HD",
      "genre": null,
      "original_page_url": "https://tv8.lk21official.cc/samurai-fury-muromachi-burai-2025"
    },
    {
      "id": "de64df09-8d05-495b-b639-5e3fb10d44d6",
      "title": "Little Amelie or the Character of Rain",
      "original_title": null,
      "thumbnail": "https://poster.lk21.party/wp-content/uploads/2025/12/film-little-amelie-character-rain-2025-lk21.jpg.webp",
      "synopsis": null,
      "rating": 7.6,
      "duration": 77,
      "year": 2025,
      "date_published": null,
      "label_quality": "HD",
      "genre": null,
      "original_page_url": "https://tv8.lk21official.cc/little-amelie-character-rain-2025"
    },
    {
      "id": "25d38327-566e-4aab-bb2d-07f880d1891e",
      "title": "Day of a Lion",
      "original_title": null,
      "thumbnail": "https://poster.lk21.party/wp-content/uploads/2025/12/film-day-lion-2025-lk21.jpg.webp",
      "synopsis": null,
      "rating": 4.2,
      "duration": 86,
      "year": 2025,
      "date_published": null,
      "label_quality": "HD",
      "genre": null,
      "original_page_url": "https://tv8.lk21official.cc/day-lion-2025"
    }
  ],
  "pagination": {
    "current_page": 1,
    "total_page": 567,
    "total_items": 13608,
    "has_next": true,
    "has_prev": false,
    "next_page_url": "https://tv8.lk21official.cc/quality/hd/page/2",
    "prev_page_url": null
  }
}
