{
  "movies": [
    {
      "id": "996ebd45-d8b0-4ec3-8f8e-2224d1ca1cd4",
      "title": "Hill",
      "original_title": null,
      "thumbnail": "https://poster.lk21.party/wp-content/uploads/2026/03/film-hill-2025-lk21.jpg.webp",
      "synopsis": null,
      "rating": 7.7,
      "duration": 87,
      "year": 2025,
      "date_published": null,
      "label_quality": "HD",
      "genre": null,
      "original_page_url": "https://tv8.lk21official.cc/hill-2025"
    },
    {
      "id": "15fa5f22-a3ed-4296-b76e-a4e120e8e0cc",
      "title": "Qifarah",
      "original_title": null,
      "thumbnail": "https://poster.lk21.party/wp-content/uploads/2026/02/film-qifarah-2025-lk21.jpg.webp",
      "synopsis": null,
      "rating": 5.5,
      "duration": 95,
      "year": 2025,
      "date_published": null,
      "label_quality": "HD",
      "genre": null,
      "original_page_url": "https://tv8.lk21official.cc/qifarah-2025"
    },
    {
      "id": "4d12284a-3adb-4080-8184-f77aa3caa6c0",
      "title": "Project Y",
      "original_title": null,
      "thumbnail": "https://poster.lk21.party/wp-content/uploads/2026/02/film-project-y-2025-lk21.jpg.webp",
      "synopsis": null,
      "rating": 6,
      "duration": 108,
      "year": 2025,
      "date_published": null,
      "label_quality": "CAM",
      "genre": null,
      "original_page_url": "https://tv8.lk21official.cc/project-y-2025"
    },
    {
      "id": "b733b0cd-d26f-4ad5-852a-13c8a1f42fff",
      "title": "In Cold Light",
      "original_title": null,
      "thumbnail": "https://poster.lk21.party/wp-content/uploads/2026/02/film-cold-light-2025-lk21.jpg.webp",
      "synopsis": null,
      "rating": 5.3,
      "duration": 96,
      "year": 2025,
      "date_published": null,
      "label_quality": "HD",
      "genre": null,
      "original_page_url": "https://tv8.lk21official.cc/cold-light-2025"
    },
    {
      "id": "710688b9-8113-4029-b278-61880d745a8e",
      "title": "No-See-Ums",
      "original_title": null,
      "thumbnail": "https://poster.lk21.party/wp-content/uploads/2026/02/film-no-see-ums-2025-lk21.jpg.webp",
      "synopsis": null,
      "rating": 6,
      "duration": 80,
      "year": 2025,
      "date_published": null,
      "label_quality": "HD",
      "genre": null,
      "original_page_url": "https://tv8.lk21official.cc/no-see-ums-2025"
    },
    {
      "id": "cc2b6e77-e041-4a78-a662-4c6fa1fd5488",
      "title": "Asha",
      "original_title": null,
      "thumbnail": "https://poster.lk21.party/wp-content/uploads/2026/02/film-asha-2025-lk21.jpg.webp",
      "synopsis": null,
      "rating": null,
      "duration": 125,
      "year": 2025,
      "date_published": null,
      "label_quality": "HD",
      "genre": null,
      "original_page_url": "https://tv8.lk21official.cc/asha-2025"
    },
    {
      "id": "e009e401-ebec-4e2f-8af8-6d9150412867",
      "title": "Badak",
      "original_title": null,
      "thumbnail": "https://poster.lk21.party/wp-content/uploads/2026/02/film-badak-2025-lk21.jpg.webp",
      "synopsis": null,
      "rating": 8,
      "duration": 93,
      "year": 2025,
      "date_published": null,
      "label_quality": "HD",
      "genre": null,
      "original_page_url": "https://tv8.lk21official.cc/badak-2025"
    },
    {
      "id": "26690f22-4a76-494c-9544-5b58b33fc872",
      "title": "The War Between",
      "original_title": null,
      "thumbnail": "https://poster.lk21.party/wp-content/uploads/2026/02/film-war-between-2025-lk21.jpg.webp",
      "synopsis": null,
      "rating": 8.7,
      "duration": 98,
      "year": 2025,
      "date_published": null,
      "label_quality": "HD",
      "genre": null,
      "original_page_url": "https://tv8.lk21official.cc/war-between-2025"
    },
    {
      "id": "71789f74-041f-4d4d-ac88-1d9c2d718458",
      "title": "Calle Malaga",
      "original_title": null,
      "thumbnail": "https://poster.lk21.party/wp-content/uploads/2026/02/film-calle-malaga-2025-lk21.jpg.webp",
      "synopsis": null,
      "rating": 6.3,
      "duration": 116,
      "year": 2025,
      "date_published": null,
      "label_quality": "HD",
      "genre": null,
      "original_page_url": "https://tv8.lk21official.cc/calle-malaga-2025"
    },
    {
      "id": "9dfe2c0b-4a88-41cc-a2c9-5df16a031641",
      "title": "Blood Barn",
      "original_title": null,
      "thumbnail": "https://poster.lk21.party/wp-content/uploads/2026/02/film-blood-barn-2025-lk21.jpg.webp",
      "synopsis": null,
      "rating": null,
      "duration": 77,
      "year": 2025,
      "date_published": null,
      "label_quality": "HD",
      "genre": null,
      "original_page_url": "https://tv8.lk21official.cc/blood-barn-2025"
    },
    {
      "id": "e80cfdce-9f71-40e8-a4f0-d8dd060b2971",
      "title": "Arva (Orphan)",
      "original_title": null,
      "thumbnail": "https://poster.lk21.party/wp-content/uploads/2026/02/film-arva-orphan-2025-lk21.jpg.webp",
      "synopsis": null,
      "rating": null,
      "duration": 132,
      "year": 2025,
      "date_published": null,
      "label_quality": "HD",
      "genre": null,
      "original_page_url": "https://tv8.lk21official.cc/arva-orphan-2025"
    },
    {
      "id": "b8b75227-e16f-429f-96b9-1b6801d15241",
      "title": "Dead Man's Wire",
      "original_title": null,
      "thumbnail": "https://poster.lk21.party/wp-content/uploads/2026/02/film-dead-mans-wire-2025-lk21.jpg.webp",
      "synopsis": null,
      "rating": 6.5,
      "duration": 105,
      "year": 2025,
      "date_published": null,
      "label_quality": "HD",
      "genre": null,
      "original_page_url": "https://tv8.lk21official.cc/dead-mans-wire-2025"
    },
    {
      "id": "74c7bc01-e948-4be7-996e-2600287bf390",
      "title": "You Stole My Heart",
      "original_title": null,
      "thumbnail": "https://poster.lk21.party/wp-content/uploads/2026/02/film-you-stole-my-heart-2025-lk21.jpg.webp",
      "synopsis": null,
      "rating": 4.6,
      "duration": 99,
      "year": 2025,
      "date_published": null,
      "label_quality": "HD",
      "genre": null,
      "original_page_url": "https://tv8.lk21official.cc/you-stole-my-heart-2025"
    },
    {
      "id": "32e42ea2-231c-45b0-87bf-26ba02044943",
      "title": "Hero Friend-U",
      "original_title": null,
      "thumbnail": "https://poster.lk21.party/wp-content/uploads/2026/02/film-hero-friend-u-2025-lk21.jpg.webp",
      "synopsis": null,
      "rating": null,
      "duration": 130,
      "year": 2025,
      "date_published": null,
      "label_quality": "HD",
      "genre": null,
      "original_page_url": "https://tv8.lk21official.cc/hero-friend-u-2025"
    },
    {
      "id": "9fa0c2fb-efe7-4dc4-af25-77b5affca952",
      "title": "H Is for Hawk",
      "original_title": null,
      "thumbnail": "https://poster.lk21.party/wp-content/uploads/2026/02/film-h-hawk-2025-lk21.jpg.webp",
      "synopsis": null,
      "rating": 7.1,
      "duration": 119,
      "year": 2025,
      "date_published": null,
      "label_quality": "HD",
      "genre": null,
      "original_page_url": "https://tv8.lk21official.cc/h-hawk-2025"
    },
    {
      "id": "e0d4990f-e496-424f-b8b5-c2a2474a7825",
      "title": "Arco",
      "original_title": null,
      "thumbnail": "https://poster.lk21.party/wp-content/uploads/2026/02/film-arco-2025-lk21.jpg.webp",
      "synopsis": null,
      "rating": 7.8,
      "duration": 89,
      "year": 2025,
      "date_published": null,
      "label_quality": "HD",
      "genre": null,
      "original_page_url": "https://tv8.lk21official.cc/arco-2025"
    },
    {
      "id": "13327b09-84fe-477f-8bfa-25af1e686f42",
      "title": "I Don't Love You Anymore",
      "original_title": null,
      "thumbnail": "https://poster.lk21.party/wp-content/uploads/2026/02/film-i-dont-love-you-anymore-2025-lk21.jpg.webp",
      "synopsis": null,
      "rating": null,
      "duration": 72,
      "year": 2025,
      "date_published": null,
      "label_quality": "HD",
      "genre": null,
      "original_page_url": "https://tv8.lk21official.cc/i-dont-love-you-anymore-2025"
    },
    {
      "id": "fb66ef22-08d7-43c3-84b4-e5572e65c6a5",
      "title": "The Nanny Sees All",
      "original_title": null,
      "thumbnail": "https://poster.lk21.party/wp-content/uploads/2026/02/film-nanny-sees-all-2025-lk21.jpg.webp",
      "synopsis": null,
      "rating": 6,
      "duration": 86,
      "year": 2025,
      "date_published": null,
      "label_quality": "HD",
      "genre": null,
      "original_page_url": "https://tv8.lk21official.cc/nanny-sees-all-2025"
    },
    {
      "id": "83ea1ba3-089d-4f0e-8749-fdd515ff7192",
      "title": "Don't Hang Up",
      "original_title": null,
      "thumbnail": "https://poster.lk21.party/wp-content/uploads/2026/02/film-dont-hang-up-2025-lk21.jpg.webp",
      "synopsis": null,
      "rating": 5.8,
      "duration": 87,
      "year": 2025,
      "date_published": null,
      "label_quality": "HD",
      "genre": null,
      "original_page_url": "https://tv8.lk21official.cc/dont-hang-up-2025"
    },
    {
      "id": "a7b739f5-9795-4016-a3a9-34a895bb6e94",
      "title": "The Mastermind",
      "original_title": null,
      "thumbnail": "https://poster.lk21.party/wp-content/uploads/2025/12/film-mastermind-2025-lk21.jpg.webp",
      "synopsis": null,
      "rating": 5.8,
      "duration": 110,
      "year": 2025,
      "date_published": null,
      "label_quality": "HD",
      "genre": null,
      "original_page_url": "https://tv8.lk21official.cc/mastermind-2025"
    },
    {
      "id": "d863dca7-7d15-4d21-8983-1359894bc67a",
      "title": "Oporichito",
      "original_title": null,
      "thumbnail": "https://poster.lk21.party/wp-content/uploads/2026/02/film-oporichito-2025-lk21.jpg.webp",
      "synopsis": null,
      "rating": null,
      "duration": 124,
      "year": 2025,
      "date_published": null,
      "label_quality": "HD",
      "genre": null,
      "original_page_url": "https://tv8.lk21official.cc/oporichito-2025"
    },
    {
      "id": "17293404-08b8-48d4-bbd0-0ac17bb79c2e",
      "title": "Caught Stealing",
      "original_title": null,
      "thumbnail": "https://poster.lk21.party/wp-content/uploads/2025/10/film-caught-stealing-2025-lk21.jpg.webp",
      "synopsis": null,
      "rating": 6.9,
      "duration": 107,
      "year": 2025,
      "date_published": null,
      "label_quality": "HD",
      "genre": null,
      "original_page_url": "https://tv8.lk21official.cc/caught-stealing-2025"
    },
    {
      "id": "a70c682e-1060-4835-8a2a-641b6d32a47f",
      "title": "Now You See Me: Now You Don't",
      "original_title": null,
      "thumbnail": "https://poster.lk21.party/wp-content/uploads/2025/11/film-now-you-see-me-now-you-dont-2025-lk21.jpg.webp",
      "synopsis": null,
      "rating": 6.5,
      "duration": 113,
      "year": 2025,
      "date_published": null,
      "label_quality": "HD",
      "genre": null,
      "original_page_url": "https://tv8.lk21official.cc/now-you-see-me-now-you-dont-2025"
    },
    {
      "id": "44c442d2-8909-4540-b1ef-615d9a8ce720",
      "title": "Black Phone 2",
      "original_title": null,
      "thumbnail": "https://poster.lk21.party/wp-content/uploads/2025/10/film-black-phone-2-2025-lk21.jpg.webp",
      "synopsis": null,
      "rating": 6.8,
      "duration": 114,
      "year": 2025,
      "date_published": null,
      "label_quality": "HD",
      "genre": null,
      "original_page_url": "https://tv8.lk21official.cc/black-phone-2-2025"
    }
  ],
  "pagination": {
    "current_page": 1,
    "total_page": 56,
    "total_items": 1344,
    "has_next": true,
    "has_prev": false,
    "next_page_url": "https://tv8.lk21official.cc/year/2025/page/2",
    "prev_page_url": null
  }
}
