{
  "movies": [
    {
      "id": "a96f624b-ae4e-4b92-ab21-0fd7aa66e798",
      "title": "The Beauty",
      "original_title": null,
      "thumbnail": "https://poster.lk21.party/wp-content/uploads/2026/01/film-beauty-2026-lk21-1.jpg",
      "synopsis": null,
      "rating": 3.6,
      "duration": null,
      "year": 2026,
      "date_published": null,
      "label_quality": null,
      "genre": null,
      "original_page_url": "https://tv3.nontondrama.my/beauty-2026"
    },
    {
      "id": "bf2b6224-fec1-4099-b28c-1ea6401db94d",
      "title": "Scrubs",
      "original_title": null,
      "thumbnail": "https://poster.lk21.party/wp-content/uploads/2026/02/film-scrubs-2026-lk21.jpg",
      "synopsis": null,
      "rating": 6,
      "duration": null,
      "year": 2026,
      "date_published": null,
      "label_quality": null,
      "genre": null,
      "original_page_url": "https://tv3.nontondrama.my/scrubs-2026"
    },
    {
      "id": "eb150c54-68de-4b6b-a4c8-cb9850a6addf",
      "title": "Best Medicine",
      "original_title": null,
      "thumbnail": "https://poster.lk21.party/wp-content/uploads/2026/01/film-best-medicine-2026-lk21.jpg",
      "synopsis": null,
      "rating": 5.5,
      "duration": null,
      "year": 2026,
      "date_published": null,
      "label_quality": null,
      "genre": null,
      "original_page_url": "https://tv3.nontondrama.my/best-medicine-2026"
    },
    {
      "id": "3018d488-6099-4909-80a9-89cc871d0ffe",
      "title": "Star Trek: Starfleet Academy",
      "original_title": null,
      "thumbnail": "https://poster.lk21.party/wp-content/uploads/2026/01/film-star-trek-starfleet-academy-2026-lk21.jpg",
      "synopsis": null,
      "rating": null,
      "duration": null,
      "year": 2026,
      "date_published": null,
      "label_quality": null,
      "genre": null,
      "original_page_url": "https://tv3.nontondrama.my/star-trek-starfleet-academy-2026"
    },
    {
      "id": "bb7f8846-c7ee-440b-86d7-d1ff0cbf13ea",
      "title": "Suddenly Amish",
      "original_title": null,
      "thumbnail": "https://poster.lk21.party/wp-content/uploads/2026/02/film-suddenly-amish-2026-lk21.jpg",
      "synopsis": null,
      "rating": 10,
      "duration": null,
      "year": 2026,
      "date_published": null,
      "label_quality": null,
      "genre": null,
      "original_page_url": "https://tv3.nontondrama.my/suddenly-amish-2026"
    },
    {
      "id": "082e8c11-d3fd-4f21-bc3d-c72ccfc63d0c",
      "title": "Memory of a Killer",
      "original_title": null,
      "thumbnail": "https://poster.lk21.party/wp-content/uploads/2026/01/film-memory-killer-2026-lk21.jpg",
      "synopsis": null,
      "rating": 8.2,
      "duration": null,
      "year": 2026,
      "date_published": null,
      "label_quality": null,
      "genre": null,
      "original_page_url": "https://tv3.nontondrama.my/memory-killer-2026"
    },
    {
      "id": "fe6cbfbc-8c8d-4a8f-964c-686ff17c4b18",
      "title": "CIA",
      "original_title": null,
      "thumbnail": "https://poster.lk21.party/wp-content/uploads/2026/02/film-cia-2026-lk21.jpg",
      "synopsis": null,
      "rating": 9,
      "duration": null,
      "year": 2026,
      "date_published": null,
      "label_quality": null,
      "genre": null,
      "original_page_url": "https://tv3.nontondrama.my/cia-2026"
    },
    {
      "id": "15e28a5c-92e6-4f2c-844f-d46b9d092eb8",
      "title": "A Knight of the Seven Kingdoms",
      "original_title": null,
      "thumbnail": "https://poster.lk21.party/wp-content/uploads/2026/01/film-knight-seven-kingdoms-2026-lk21.jpg",
      "synopsis": null,
      "rating": 9.2,
      "duration": null,
      "year": 2026,
      "date_published": null,
      "label_quality": null,
      "genre": null,
      "original_page_url": "https://tv3.nontondrama.my/knight-seven-kingdoms-2026"
    },
    {
      "id": "93db51d4-85eb-4639-99cf-5268d5de5b37",
      "title": "Neighbors",
      "original_title": null,
      "thumbnail": "https://poster.lk21.party/wp-content/uploads/2026/02/film-neighbors-2026-lk21.jpg",
      "synopsis": null,
      "rating": 7.7,
      "duration": null,
      "year": 2026,
      "date_published": null,
      "label_quality": null,
      "genre": null,
      "original_page_url": "https://tv3.nontondrama.my/neighbors-2026"
    },
    {
      "id": "b4e34b29-5d21-46d0-9db5-fcc7cfd9abe8",
      "title": "The Pendragon Cycle: Rise of the Merlin",
      "original_title": null,
      "thumbnail": "https://poster.lk21.party/wp-content/uploads/2026/01/film-pendragon-cycle-rise-merlin-2026-lk21.jpg",
      "synopsis": null,
      "rating": null,
      "duration": null,
      "year": 2026,
      "date_published": null,
      "label_quality": null,
      "genre": null,
      "original_page_url": "https://tv3.nontondrama.my/pendragon-cycle-rise-merlin-2026"
    },
    {
      "id": "1df538f5-4610-4ead-8c37-ad30c4e30b89",
      "title": "Black and Jewish America: An Interwoven History",
      "original_title": null,
      "thumbnail": "https://poster.lk21.party/wp-content/uploads/2026/02/film-black-jewish-america-interwoven-history-2026-lk21.jpg",
      "synopsis": null,
      "rating": 1,
      "duration": null,
      "year": 2026,
      "date_published": null,
      "label_quality": null,
      "genre": null,
      "original_page_url": "https://tv3.nontondrama.my/black-jewish-america-interwoven-history-2026"
    },
    {
      "id": "164c636d-aa53-4365-8d91-9da20e37431d",
      "title": "Wild Boys: Strangers in Town",
      "original_title": null,
      "thumbnail": "https://poster.lk21.party/wp-content/uploads/2026/02/film-wild-boys-strangers-town-2026-lk21.jpg",
      "synopsis": null,
      "rating": null,
      "duration": null,
      "year": 2026,
      "date_published": null,
      "label_quality": null,
      "genre": null,
      "original_page_url": "https://tv3.nontondrama.my/wild-boys-strangers-town-2026"
    },
    {
      "id": "01a1d535-d3c7-46eb-add1-a2d5857ef6a3",
      "title": "Reality Check: Inside America's Next Top Model",
      "original_title": null,
      "thumbnail": "https://poster.lk21.party/wp-content/uploads/2026/02/film-reality-check-inside-americas-next-top-model-2026-lk21.jpg",
      "synopsis": null,
      "rating": 6.8,
      "duration": null,
      "year": 2026,
      "date_published": null,
      "label_quality": null,
      "genre": null,
      "original_page_url": "https://tv3.nontondrama.my/reality-check-inside-americas-next-top-model-2026"
    },
    {
      "id": "b07fbb8b-1fe1-4637-ada0-b18d0b81359e",
      "title": "The Hillside Strangler",
      "original_title": null,
      "thumbnail": "https://poster.lk21.party/wp-content/uploads/2026/02/film-hillside-strangler-2026-lk21.jpg",
      "synopsis": null,
      "rating": 8.5,
      "duration": null,
      "year": 2026,
      "date_published": null,
      "label_quality": null,
      "genre": null,
      "original_page_url": "https://tv3.nontondrama.my/hillside-strangler-2026"
    },
    {
      "id": "61aaa119-fc53-42fc-95fa-19b43ff74aa8",
      "title": "Final Twist",
      "original_title": null,
      "thumbnail": "https://poster.lk21.party/wp-content/uploads/2026/02/film-harlan-cobens-final-twist-2026-lk21.jpg",
      "synopsis": null,
      "rating": 4,
      "duration": null,
      "year": 2026,
      "date_published": null,
      "label_quality": null,
      "genre": null,
      "original_page_url": "https://tv3.nontondrama.my/harlan-cobens-final-twist-2026"
    },
    {
      "id": "77082118-f50d-43ec-8fe3-69fb0e4f4d99",
      "title": "Can You Keep a Secret?",
      "original_title": null,
      "thumbnail": "https://poster.lk21.party/wp-content/uploads/2026/01/film-can-you-keep-secret-2026-lk21.jpg",
      "synopsis": null,
      "rating": null,
      "duration": null,
      "year": 2026,
      "date_published": null,
      "label_quality": null,
      "genre": null,
      "original_page_url": "https://tv3.nontondrama.my/can-you-keep-secret-2026"
    },
    {
      "id": "914264a1-e24b-4581-af82-909fc30d7641",
      "title": "Steal",
      "original_title": null,
      "thumbnail": "https://poster.lk21.party/wp-content/uploads/2026/01/film-steal-2026-lk21.jpg",
      "synopsis": null,
      "rating": null,
      "duration": null,
      "year": 2026,
      "date_published": null,
      "label_quality": null,
      "genre": null,
      "original_page_url": "https://tv3.nontondrama.my/steal-2026"
    },
    {
      "id": "db4efe3c-aa20-4230-9f41-392ece825bbe",
      "title": "Glitter \u0026 Gold: Ice Dancing",
      "original_title": null,
      "thumbnail": "https://poster.lk21.party/wp-content/uploads/2026/02/film-glitter-gold-ice-dancing-2026-lk21-1.jpg",
      "synopsis": null,
      "rating": 8.7,
      "duration": null,
      "year": 2026,
      "date_published": null,
      "label_quality": null,
      "genre": null,
      "original_page_url": "https://tv3.nontondrama.my/glitter-gold-ice-dancing-2026"
    },
    {
      "id": "7baf469b-c535-4cf8-9eff-aaecca8a227e",
      "title": "Wonder Man",
      "original_title": null,
      "thumbnail": "https://poster.lk21.party/wp-content/uploads/2026/02/film-wonder-man-2026-lk21.jpg",
      "synopsis": null,
      "rating": 7.1,
      "duration": null,
      "year": 2026,
      "date_published": null,
      "label_quality": null,
      "genre": null,
      "original_page_url": "https://tv3.nontondrama.my/wonder-man-2026"
    },
    {
      "id": "b0eb4b4f-3ff6-4ee1-aa23-57b650ba6eeb",
      "title": "It's Not Like That",
      "original_title": null,
      "thumbnail": "https://poster.lk21.party/wp-content/uploads/2026/02/film-its-not-like-that-2026-lk21.jpg",
      "synopsis": null,
      "rating": 8.4,
      "duration": null,
      "year": 2026,
      "date_published": null,
      "label_quality": null,
      "genre": null,
      "original_page_url": "https://tv3.nontondrama.my/its-not-like-that-2026"
    },
    {
      "id": "43517e81-de1d-4325-90f3-33e3aa832f5b",
      "title": "The Cult of the Real Housewife",
      "original_title": null,
      "thumbnail": "https://poster.lk21.party/wp-content/uploads/2026/01/film-cult-real-housewife-2026-lk21.jpg",
      "synopsis": null,
      "rating": 5.7,
      "duration": null,
      "year": 2026,
      "date_published": null,
      "label_quality": null,
      "genre": null,
      "original_page_url": "https://tv3.nontondrama.my/cult-real-housewife-2026"
    },
    {
      "id": "41a838f0-6928-47cc-8379-42983fcad14b",
      "title": "Sheriff Country",
      "original_title": null,
      "thumbnail": "https://poster.lk21.party/wp-content/uploads/2025/10/film-sheriff-country-2025-lk21.jpg",
      "synopsis": null,
      "rating": 6.2,
      "duration": null,
      "year": 2025,
      "date_published": null,
      "label_quality": null,
      "genre": null,
      "original_page_url": "https://tv3.nontondrama.my/sheriff-country-2025"
    },
    {
      "id": "b2ea3be4-161b-4be1-8642-005fc9d6624b",
      "title": "Boston Blue",
      "original_title": null,
      "thumbnail": "https://poster.lk21.party/wp-content/uploads/2025/10/film-boston-blue-2025-lk21.jpg",
      "synopsis": null,
      "rating": 6.6,
      "duration": null,
      "year": 2025,
      "date_published": null,
      "label_quality": null,
      "genre": null,
      "original_page_url": "https://tv3.nontondrama.my/boston-blue-2025"
    },
    {
      "id": "e675a7bd-0b6f-4cf2-b6d2-f6c174c7f9eb",
      "title": "9-1-1: Nashville",
      "original_title": null,
      "thumbnail": "https://poster.lk21.party/wp-content/uploads/2025/10/film-9-1-1-nashville-2025-lk21.jpg",
      "synopsis": null,
      "rating": 5.6,
      "duration": null,
      "year": 2025,
      "date_published": null,
      "label_quality": null,
      "genre": null,
      "original_page_url": "https://tv3.nontondrama.my/9-1-1-nashville-2025"
    }
  ],
  "pagination": {
    "current_page": 1,
    "total_page": 48,
    "total_items": 1152,
    "has_next": true,
    "has_prev": false,
    "next_page_url": "https://tv3.nontondrama.my/country/USA/page/2",
    "prev_page_url": null
  }
}
