{
  "movies": [
    {
      "id": "cc504927-1064-4053-b459-cb2fc53839aa",
      "title": "Lucky's First Love",
      "original_title": null,
      "thumbnail": "https://poster.lk21.party/wp-content/uploads/2026/02/film-luckys-first-love-2019-lk21.jpg",
      "synopsis": null,
      "rating": 7.1,
      "duration": null,
      "year": 2019,
      "date_published": null,
      "label_quality": null,
      "genre": null,
      "original_page_url": "https://tv3.nontondrama.my/luckys-first-love-2019"
    },
    {
      "id": "5c7a5112-1130-42ed-b0f6-b6f5ea9a9c06",
      "title": "Love Story in the 1970s",
      "original_title": null,
      "thumbnail": "https://poster.lk21.party/wp-content/uploads/2026/02/film-love-story-1970s-2026-lk21.jpg",
      "synopsis": null,
      "rating": null,
      "duration": null,
      "year": 2026,
      "date_published": null,
      "label_quality": null,
      "genre": null,
      "original_page_url": "https://tv3.nontondrama.my/love-story-1970s-2026"
    },
    {
      "id": "d0404c7e-c567-45af-a871-05b070d63756",
      "title": "Portobello",
      "original_title": null,
      "thumbnail": "https://poster.lk21.party/wp-content/uploads/2026/03/film-portobello-2025-lk21.jpg",
      "synopsis": null,
      "rating": 7,
      "duration": null,
      "year": 2025,
      "date_published": null,
      "label_quality": null,
      "genre": null,
      "original_page_url": "https://tv3.nontondrama.my/portobello-2025"
    },
    {
      "id": "0f6f3e5a-81ed-4050-96ee-f204949f3a8b",
      "title": "Hell University",
      "original_title": null,
      "thumbnail": "https://poster.lk21.party/wp-content/uploads/2026/03/film-hell-university-2026-lk21.jpg",
      "synopsis": null,
      "rating": null,
      "duration": null,
      "year": 2026,
      "date_published": null,
      "label_quality": null,
      "genre": null,
      "original_page_url": "https://tv3.nontondrama.my/hell-university-2026"
    },
    {
      "id": "cd915922-98f3-46f6-a1dc-fd9b8faa5c1a",
      "title": "Under Salt Marsh",
      "original_title": null,
      "thumbnail": "https://poster.lk21.party/wp-content/uploads/2026/01/film-under-salt-marsh-2026-lk21.jpg",
      "synopsis": null,
      "rating": 4,
      "duration": null,
      "year": 2026,
      "date_published": null,
      "label_quality": null,
      "genre": null,
      "original_page_url": "https://tv3.nontondrama.my/under-salt-marsh-2026"
    },
    {
      "id": "9796bf19-78ba-4c4f-b239-f3181cccd611",
      "title": "The Beauty",
      "original_title": null,
      "thumbnail": "https://poster.lk21.party/wp-content/uploads/2026/01/film-beauty-2026-lk21-1.jpg",
      "synopsis": null,
      "rating": 3.6,
      "duration": null,
      "year": 2026,
      "date_published": null,
      "label_quality": null,
      "genre": null,
      "original_page_url": "https://tv3.nontondrama.my/beauty-2026"
    },
    {
      "id": "b0fcf5b2-9794-4c42-8168-5bbb9ee6dd21",
      "title": "Sheriff Country",
      "original_title": null,
      "thumbnail": "https://poster.lk21.party/wp-content/uploads/2025/10/film-sheriff-country-2025-lk21.jpg",
      "synopsis": null,
      "rating": 6.2,
      "duration": null,
      "year": 2025,
      "date_published": null,
      "label_quality": null,
      "genre": null,
      "original_page_url": "https://tv3.nontondrama.my/sheriff-country-2025"
    },
    {
      "id": "0e6d7791-c40a-458e-948a-ece4e2a52955",
      "title": "Fire Country",
      "original_title": null,
      "thumbnail": "https://poster.lk21.party/wp-content/uploads/2025/11/film-fire-country-2022-lk21.jpg",
      "synopsis": null,
      "rating": 7.1,
      "duration": null,
      "year": 2022,
      "date_published": null,
      "label_quality": null,
      "genre": null,
      "original_page_url": "https://tv3.nontondrama.my/fire-country-2022"
    },
    {
      "id": "dc9cf5dc-dbeb-449a-9f32-13fa545a90ba",
      "title": "Dark Winds",
      "original_title": null,
      "thumbnail": "https://poster.lk21.party/wp-content/uploads/2022/06/film-dark-winds-2022-lk21-d21.jpg",
      "synopsis": null,
      "rating": 7.6,
      "duration": null,
      "year": 2022,
      "date_published": null,
      "label_quality": null,
      "genre": null,
      "original_page_url": "https://tv3.nontondrama.my/dark-winds-2022"
    },
    {
      "id": "89bba5c0-ef8a-49d9-b8c9-fccb6fe6123c",
      "title": "Boston Blue",
      "original_title": null,
      "thumbnail": "https://poster.lk21.party/wp-content/uploads/2025/10/film-boston-blue-2025-lk21.jpg",
      "synopsis": null,
      "rating": 6.6,
      "duration": null,
      "year": 2025,
      "date_published": null,
      "label_quality": null,
      "genre": null,
      "original_page_url": "https://tv3.nontondrama.my/boston-blue-2025"
    },
    {
      "id": "2b136ceb-75eb-402a-b9c5-151fbe20005a",
      "title": "Sugar and Lies",
      "original_title": null,
      "thumbnail": "https://poster.lk21.party/wp-content/uploads/2026/02/film-sugar-lies-2026-lk21.jpg",
      "synopsis": null,
      "rating": null,
      "duration": null,
      "year": 2026,
      "date_published": null,
      "label_quality": null,
      "genre": null,
      "original_page_url": "https://tv3.nontondrama.my/sugar-lies-2026"
    },
    {
      "id": "9d842304-7ba8-43aa-ac59-d6862a1e53a6",
      "title": "Rack 'n' Roll Delivery",
      "original_title": null,
      "thumbnail": "https://poster.lk21.party/wp-content/uploads/2026/02/film-rack-n-roll-delivery-2026-lk21.jpg",
      "synopsis": null,
      "rating": null,
      "duration": null,
      "year": 2026,
      "date_published": null,
      "label_quality": null,
      "genre": null,
      "original_page_url": "https://tv3.nontondrama.my/rack-n-roll-delivery-2026"
    },
    {
      "id": "a06ff03b-1e33-4c48-b844-da4f736e435b",
      "title": "Monarch: Legacy of Monsters",
      "original_title": null,
      "thumbnail": "https://poster.lk21.party/wp-content/uploads/2023/11/film-monarch-legacy-of-monsters-2023-lk21-d21.jpg",
      "synopsis": null,
      "rating": 7.8,
      "duration": null,
      "year": 2023,
      "date_published": null,
      "label_quality": null,
      "genre": null,
      "original_page_url": "https://tv3.nontondrama.my/monarch-legacy-of-monsters-2023"
    },
    {
      "id": "393a890e-3e7f-4cfd-9083-e56a63045b92",
      "title": "Mama Go!",
      "original_title": null,
      "thumbnail": "https://poster.lk21.party/wp-content/uploads/2026/02/film-mama-go-2026-lk21.jpg",
      "synopsis": null,
      "rating": null,
      "duration": null,
      "year": 2026,
      "date_published": null,
      "label_quality": null,
      "genre": null,
      "original_page_url": "https://tv3.nontondrama.my/mama-go-2026"
    },
    {
      "id": "ce27bd5a-a6f5-4397-a176-684ded00ff6f",
      "title": "Generation to Generation",
      "original_title": null,
      "thumbnail": "https://poster.lk21.party/wp-content/uploads/2026/02/film-generation-generation-2026-lk21.jpg",
      "synopsis": null,
      "rating": null,
      "duration": null,
      "year": 2026,
      "date_published": null,
      "label_quality": null,
      "genre": null,
      "original_page_url": "https://tv3.nontondrama.my/generation-generation-2026"
    },
    {
      "id": "d416aec4-8401-429e-b943-c3235a7a1653",
      "title": "About Love",
      "original_title": null,
      "thumbnail": "https://poster.lk21.party/wp-content/uploads/2026/02/film-about-love-2026-lk21.jpg",
      "synopsis": null,
      "rating": null,
      "duration": null,
      "year": 2026,
      "date_published": null,
      "label_quality": null,
      "genre": null,
      "original_page_url": "https://tv3.nontondrama.my/about-love-2026"
    },
    {
      "id": "6863d639-89aa-4396-8f18-5b017626c5f9",
      "title": "A Summer Meant for Us",
      "original_title": null,
      "thumbnail": "https://poster.lk21.party/wp-content/uploads/2026/02/film-summer-meant-us-2026-lk21.jpg",
      "synopsis": null,
      "rating": null,
      "duration": null,
      "year": 2026,
      "date_published": null,
      "label_quality": null,
      "genre": null,
      "original_page_url": "https://tv3.nontondrama.my/summer-meant-us-2026"
    },
    {
      "id": "a1daa8b6-5ec3-41fb-9014-6b18b88693d8",
      "title": "The Secrets of Hotel 88",
      "original_title": null,
      "thumbnail": "https://poster.lk21.party/wp-content/uploads/2026/02/film-secrets-hotel-88-2026-lk21.jpg",
      "synopsis": null,
      "rating": null,
      "duration": null,
      "year": 2026,
      "date_published": null,
      "label_quality": null,
      "genre": null,
      "original_page_url": "https://tv3.nontondrama.my/secrets-hotel-88-2026"
    },
    {
      "id": "0e6e391b-2de1-4c87-a3f2-3fdf11205743",
      "title": "In Your Radiant Season",
      "original_title": null,
      "thumbnail": "https://poster.lk21.party/wp-content/uploads/2026/02/film-your-radiant-season-2026-lk21.jpg",
      "synopsis": null,
      "rating": null,
      "duration": null,
      "year": 2026,
      "date_published": null,
      "label_quality": null,
      "genre": null,
      "original_page_url": "https://tv3.nontondrama.my/your-radiant-season-2026"
    },
    {
      "id": "b48da75d-5f34-4cdf-aa39-dea4b91450e6",
      "title": "The Practical Guide to Love",
      "original_title": null,
      "thumbnail": "https://poster.lk21.party/wp-content/uploads/2026/03/film-practical-guide-love-2026-lk21.jpg",
      "synopsis": null,
      "rating": null,
      "duration": null,
      "year": 2026,
      "date_published": null,
      "label_quality": null,
      "genre": null,
      "original_page_url": "https://tv3.nontondrama.my/practical-guide-love-2026"
    },
    {
      "id": "1d844d38-ded9-444d-804d-d9374000abb3",
      "title": "Undercover Miss Hong",
      "original_title": null,
      "thumbnail": "https://poster.lk21.party/wp-content/uploads/2026/01/film-undercover-miss-hong-2026-lk21.jpg",
      "synopsis": null,
      "rating": null,
      "duration": null,
      "year": 2026,
      "date_published": null,
      "label_quality": null,
      "genre": null,
      "original_page_url": "https://tv3.nontondrama.my/undercover-miss-hong-2026"
    },
    {
      "id": "8853d97c-819a-41d8-88e1-7fca0a20a3c2",
      "title": "No Tail to Tell",
      "original_title": null,
      "thumbnail": "https://poster.lk21.party/wp-content/uploads/2026/01/film-no-tail-tell-2026-lk21.jpg",
      "synopsis": null,
      "rating": null,
      "duration": null,
      "year": 2026,
      "date_published": null,
      "label_quality": null,
      "genre": null,
      "original_page_url": "https://tv3.nontondrama.my/no-tail-tell-2026"
    },
    {
      "id": "85ed2042-608c-4779-a941-e4a0ccc799a0",
      "title": "Meteor Garden",
      "original_title": null,
      "thumbnail": "https://poster.lk21.party/wp-content/uploads/2026/02/film-meteor-garden-2018-lk21.jpg",
      "synopsis": null,
      "rating": 8.5,
      "duration": null,
      "year": 2018,
      "date_published": null,
      "label_quality": null,
      "genre": null,
      "original_page_url": "https://tv3.nontondrama.my/meteor-garden-2018"
    },
    {
      "id": "64a43c2a-ab9d-4f76-9bb2-ff32a90bc868",
      "title": "FBI: Most Wanted",
      "original_title": null,
      "thumbnail": "https://poster.lk21.party/wp-content/uploads/2026/02/film-fbi-most-wanted-2020-lk21.jpg",
      "synopsis": null,
      "rating": 7.7,
      "duration": null,
      "year": 2020,
      "date_published": null,
      "label_quality": null,
      "genre": null,
      "original_page_url": "https://tv3.nontondrama.my/fbi-most-wanted-2020"
    }
  ],
  "pagination": {
    "current_page": 1,
    "total_page": 176,
    "total_items": 4224,
    "has_next": true,
    "has_prev": false,
    "next_page_url": "https://tv3.nontondrama.my/latest/page/2",
    "prev_page_url": null
  }
}
