{
  "movies": [
    {
      "id": "6792daad-bb61-4a04-b659-4165f74bed2b",
      "title": "Star Trek: Starfleet Academy",
      "original_title": null,
      "thumbnail": "https://poster.lk21.party/wp-content/uploads/2026/01/film-star-trek-starfleet-academy-2026-lk21.jpg",
      "synopsis": null,
      "rating": null,
      "duration": null,
      "year": 2026,
      "date_published": null,
      "label_quality": null,
      "genre": null,
      "original_page_url": "https://tv3.nontondrama.my/star-trek-starfleet-academy-2026"
    },
    {
      "id": "204b678b-78a0-43dc-bf46-e32ad484e67c",
      "title": "Memory of a Killer",
      "original_title": null,
      "thumbnail": "https://poster.lk21.party/wp-content/uploads/2026/01/film-memory-killer-2026-lk21.jpg",
      "synopsis": null,
      "rating": 8.2,
      "duration": null,
      "year": 2026,
      "date_published": null,
      "label_quality": null,
      "genre": null,
      "original_page_url": "https://tv3.nontondrama.my/memory-killer-2026"
    },
    {
      "id": "70d9b9f5-864d-4c99-b29b-ba5e9e2b0e46",
      "title": "CIA",
      "original_title": null,
      "thumbnail": "https://poster.lk21.party/wp-content/uploads/2026/02/film-cia-2026-lk21.jpg",
      "synopsis": null,
      "rating": 9,
      "duration": null,
      "year": 2026,
      "date_published": null,
      "label_quality": null,
      "genre": null,
      "original_page_url": "https://tv3.nontondrama.my/cia-2026"
    },
    {
      "id": "822665f5-3b3f-4b88-b6c9-e5a32aa31336",
      "title": "A Knight of the Seven Kingdoms",
      "original_title": null,
      "thumbnail": "https://poster.lk21.party/wp-content/uploads/2026/01/film-knight-seven-kingdoms-2026-lk21.jpg",
      "synopsis": null,
      "rating": 9.2,
      "duration": null,
      "year": 2026,
      "date_published": null,
      "label_quality": null,
      "genre": null,
      "original_page_url": "https://tv3.nontondrama.my/knight-seven-kingdoms-2026"
    },
    {
      "id": "85c08d46-5f78-4a74-87c0-b16f0f58052e",
      "title": "Unfamiliar",
      "original_title": null,
      "thumbnail": "https://poster.lk21.party/wp-content/uploads/2026/02/film-unfamiliar-2026-lk21.jpg",
      "synopsis": null,
      "rating": 7.6,
      "duration": null,
      "year": 2026,
      "date_published": null,
      "label_quality": null,
      "genre": null,
      "original_page_url": "https://tv3.nontondrama.my/unfamiliar-2026"
    },
    {
      "id": "fe7184ff-af7e-4e0f-8b4b-7f545bef072a",
      "title": "The Judge Returns",
      "original_title": null,
      "thumbnail": "https://poster.lk21.party/wp-content/uploads/2026/01/film-judge-returns-2026-lk21.jpg",
      "synopsis": null,
      "rating": null,
      "duration": null,
      "year": 2026,
      "date_published": null,
      "label_quality": null,
      "genre": null,
      "original_page_url": "https://tv3.nontondrama.my/judge-returns-2026"
    },
    {
      "id": "571e1f80-3c08-4cfd-8fbc-e7353a4e63d0",
      "title": "Wonder Man",
      "original_title": null,
      "thumbnail": "https://poster.lk21.party/wp-content/uploads/2026/02/film-wonder-man-2026-lk21.jpg",
      "synopsis": null,
      "rating": 7.1,
      "duration": null,
      "year": 2026,
      "date_published": null,
      "label_quality": null,
      "genre": null,
      "original_page_url": "https://tv3.nontondrama.my/wonder-man-2026"
    },
    {
      "id": "48da1a4b-4582-4f03-97f5-8bbc8f66233f",
      "title": "A Knight in the Making",
      "original_title": null,
      "thumbnail": "https://poster.lk21.party/wp-content/uploads/2026/01/film-knight-making-2026-lk21.jpg",
      "synopsis": null,
      "rating": 7.3,
      "duration": null,
      "year": 2026,
      "date_published": null,
      "label_quality": null,
      "genre": null,
      "original_page_url": "https://tv3.nontondrama.my/knight-making-2026"
    },
    {
      "id": "74c0c349-6b5f-46ed-bfe1-93ab41114a2e",
      "title": "9-1-1: Nashville",
      "original_title": null,
      "thumbnail": "https://poster.lk21.party/wp-content/uploads/2025/10/film-9-1-1-nashville-2025-lk21.jpg",
      "synopsis": null,
      "rating": 5.6,
      "duration": null,
      "year": 2025,
      "date_published": null,
      "label_quality": null,
      "genre": null,
      "original_page_url": "https://tv3.nontondrama.my/9-1-1-nashville-2025"
    },
    {
      "id": "73ba0514-cd01-4e34-a2e9-44b51f3ef742",
      "title": "The Hunting Party",
      "original_title": null,
      "thumbnail": "https://poster.lk21.party/wp-content/uploads/2025/07/film-the-hunting-party-2025-lk21-d21.jpg",
      "synopsis": null,
      "rating": 6.6,
      "duration": null,
      "year": 2025,
      "date_published": null,
      "label_quality": null,
      "genre": null,
      "original_page_url": "https://tv3.nontondrama.my/the-hunting-party-2025"
    },
    {
      "id": "976d8779-db9a-4509-a916-43850ba79473",
      "title": "Spartacus: House of Ashur",
      "original_title": null,
      "thumbnail": "https://poster.lk21.party/wp-content/uploads/2025/12/film-spartacus-house-ashur-2025-lk21.jpg",
      "synopsis": null,
      "rating": null,
      "duration": null,
      "year": 2025,
      "date_published": null,
      "label_quality": null,
      "genre": null,
      "original_page_url": "https://tv3.nontondrama.my/spartacus-house-ashur-2025"
    },
    {
      "id": "665bc351-b277-416a-a040-6dca0e15c43d",
      "title": "Crossing the River",
      "original_title": null,
      "thumbnail": "https://poster.lk21.party/wp-content/uploads/2025/12/film-crossing-river-2025-lk21.jpg",
      "synopsis": null,
      "rating": null,
      "duration": null,
      "year": 2025,
      "date_published": null,
      "label_quality": null,
      "genre": null,
      "original_page_url": "https://tv3.nontondrama.my/crossing-river-2025"
    },
    {
      "id": "ad9e8026-8f91-4721-8758-dd38291b956c",
      "title": "The Company",
      "original_title": null,
      "thumbnail": "https://poster.lk21.party/wp-content/uploads/2025/12/film-company-2025-lk21.jpg",
      "synopsis": null,
      "rating": null,
      "duration": null,
      "year": 2025,
      "date_published": null,
      "label_quality": null,
      "genre": null,
      "original_page_url": "https://tv3.nontondrama.my/company-2025"
    },
    {
      "id": "cf918a28-9037-4562-b491-4f62be745703",
      "title": "119 Emergency Call",
      "original_title": null,
      "thumbnail": "https://poster.lk21.party/wp-content/uploads/2025/12/film-119-emergency-call-2025-lk21.jpg",
      "synopsis": null,
      "rating": 7.3,
      "duration": null,
      "year": 2025,
      "date_published": null,
      "label_quality": null,
      "genre": null,
      "original_page_url": "https://tv3.nontondrama.my/119-emergency-call-2025"
    },
    {
      "id": "cf44f6f9-b8c9-4753-b387-6524e3e1cfc9",
      "title": "American Primeval",
      "original_title": null,
      "thumbnail": "https://poster.lk21.party/wp-content/uploads/2026/01/film-american-primeval-2025-lk21.jpg",
      "synopsis": null,
      "rating": 8,
      "duration": null,
      "year": 2025,
      "date_published": null,
      "label_quality": null,
      "genre": null,
      "original_page_url": "https://tv3.nontondrama.my/american-primeval-2025"
    },
    {
      "id": "6fef52cc-47cd-4921-ad01-1f07c1c54cf7",
      "title": "Made in Korea",
      "original_title": null,
      "thumbnail": "https://poster.lk21.party/wp-content/uploads/2025/12/film-made-korea-2025-lk21.jpg",
      "synopsis": null,
      "rating": null,
      "duration": null,
      "year": 2025,
      "date_published": null,
      "label_quality": null,
      "genre": null,
      "original_page_url": "https://tv3.nontondrama.my/made-korea-2025"
    },
    {
      "id": "f6e964e9-2239-49f5-992a-8d129545d7b1",
      "title": "Concrete Market",
      "original_title": null,
      "thumbnail": "https://poster.lk21.party/wp-content/uploads/2026/01/film-concrete-market-2025-lk21.jpg",
      "synopsis": null,
      "rating": 5.7,
      "duration": null,
      "year": 2025,
      "date_published": null,
      "label_quality": null,
      "genre": null,
      "original_page_url": "https://tv3.nontondrama.my/concrete-market-2025"
    },
    {
      "id": "91b6a20e-6ffd-419c-a471-b24692c433f0",
      "title": "The Copenhagen Test",
      "original_title": null,
      "thumbnail": "https://poster.lk21.party/wp-content/uploads/2026/01/film-copenhagen-test-2025-lk21.jpg",
      "synopsis": null,
      "rating": 7.1,
      "duration": null,
      "year": 2025,
      "date_published": null,
      "label_quality": null,
      "genre": null,
      "original_page_url": "https://tv3.nontondrama.my/copenhagen-test-2025"
    },
    {
      "id": "1a7107ec-1a90-433b-b5b0-f5eb8c11edd2",
      "title": "Cashero",
      "original_title": null,
      "thumbnail": "https://poster.lk21.party/wp-content/uploads/2025/12/film-cashero-2025-lk21.jpg",
      "synopsis": null,
      "rating": null,
      "duration": null,
      "year": 2025,
      "date_published": null,
      "label_quality": null,
      "genre": null,
      "original_page_url": "https://tv3.nontondrama.my/cashero-2025"
    },
    {
      "id": "8416ba6f-c658-4152-b6ec-e3a2c0d9d17c",
      "title": "The War Between the Land and the Sea",
      "original_title": null,
      "thumbnail": "https://poster.lk21.party/wp-content/uploads/2025/12/film-war-between-land-sea-2025-lk21.jpg",
      "synopsis": null,
      "rating": 7.3,
      "duration": null,
      "year": 2025,
      "date_published": null,
      "label_quality": null,
      "genre": null,
      "original_page_url": "https://tv3.nontondrama.my/war-between-land-sea-2025"
    },
    {
      "id": "519d39b6-a63f-409a-90dd-fd732ffb62fe",
      "title": "Hotel Costiera",
      "original_title": null,
      "thumbnail": "https://poster.lk21.party/wp-content/uploads/2025/12/film-hotel-costiera-2025-lk21.jpg",
      "synopsis": null,
      "rating": 6.5,
      "duration": null,
      "year": 2025,
      "date_published": null,
      "label_quality": null,
      "genre": null,
      "original_page_url": "https://tv3.nontondrama.my/hotel-costiera-2025"
    },
    {
      "id": "22e9f1f2-f085-4ff0-b088-9b13d7b9d1cb",
      "title": "UDT: Heroes Next Door",
      "original_title": null,
      "thumbnail": "https://poster.lk21.party/wp-content/uploads/2025/11/film-udt-heroes-next-door-2025-lk21.jpg",
      "synopsis": null,
      "rating": 9.4,
      "duration": null,
      "year": 2025,
      "date_published": null,
      "label_quality": null,
      "genre": null,
      "original_page_url": "https://tv3.nontondrama.my/udt-heroes-next-door-2025"
    },
    {
      "id": "b980f693-4957-43b2-b8e2-b59fbe29a030",
      "title": "The Mighty Nein",
      "original_title": null,
      "thumbnail": "https://poster.lk21.party/wp-content/uploads/2025/12/film-mighty-nein-2025-lk21.jpg",
      "synopsis": null,
      "rating": 8.7,
      "duration": null,
      "year": 2025,
      "date_published": null,
      "label_quality": null,
      "genre": null,
      "original_page_url": "https://tv3.nontondrama.my/mighty-nein-2025"
    },
    {
      "id": "72784885-4195-46eb-8c8d-48770ba3444f",
      "title": "The Last Frontier",
      "original_title": null,
      "thumbnail": "https://poster.lk21.party/wp-content/uploads/2025/12/film-last-frontier-2025-lk21.jpg",
      "synopsis": null,
      "rating": 6.8,
      "duration": null,
      "year": 2025,
      "date_published": null,
      "label_quality": null,
      "genre": null,
      "original_page_url": "https://tv3.nontondrama.my/last-frontier-2025"
    }
  ],
  "pagination": {
    "current_page": 1,
    "total_page": 25,
    "total_items": 600,
    "has_next": true,
    "has_prev": false,
    "next_page_url": "https://tv3.nontondrama.my/genre/action/page/2",
    "prev_page_url": null
  }
}
