{
  "movies": [
    {
      "id": "b295479b-7e2e-4304-b648-8bdf6ad7b13a",
      "title": "FBI: Most Wanted",
      "original_title": null,
      "thumbnail": "https://poster.lk21.party/wp-content/uploads/2026/02/film-fbi-most-wanted-2020-lk21.jpg",
      "synopsis": null,
      "rating": 7.7,
      "duration": null,
      "year": 2020,
      "date_published": null,
      "label_quality": null,
      "genre": null,
      "original_page_url": "https://tv3.nontondrama.my/fbi-most-wanted-2020"
    },
    {
      "id": "8e3b548c-cead-4db4-a3b8-71f7ad98e39f",
      "title": "Bridgerton",
      "original_title": null,
      "thumbnail": "https://poster.lk21.party/wp-content/uploads/2022/03/film-bridgerton-2020-lk21-d21.jpg",
      "synopsis": null,
      "rating": 7.3,
      "duration": null,
      "year": 2020,
      "date_published": null,
      "label_quality": null,
      "genre": null,
      "original_page_url": "https://tv3.nontondrama.my/bridgerton-2020"
    },
    {
      "id": "8ca078c9-ab46-41e1-ab06-87611f2982c7",
      "title": "Love Designer",
      "original_title": null,
      "thumbnail": "https://poster.lk21.party/wp-content/uploads/2026/02/film-love-designer-2020-lk21.jpg",
      "synopsis": null,
      "rating": 7.2,
      "duration": null,
      "year": 2020,
      "date_published": null,
      "label_quality": null,
      "genre": null,
      "original_page_url": "https://tv3.nontondrama.my/love-designer-2020"
    },
    {
      "id": "b975c6a9-3d57-4478-b71b-e14399bb910c",
      "title": "Industry",
      "original_title": null,
      "thumbnail": "https://poster.lk21.party/wp-content/uploads/2024/09/film-industry-2020-lk21-d21.jpg",
      "synopsis": null,
      "rating": 7.3,
      "duration": null,
      "year": 2020,
      "date_published": null,
      "label_quality": null,
      "genre": null,
      "original_page_url": "https://tv3.nontondrama.my/industry-2020"
    },
    {
      "id": "f9bd9a3e-7161-4257-81dc-82a2a474615a",
      "title": "Dating in the Kitchen",
      "original_title": null,
      "thumbnail": "https://poster.lk21.party/wp-content/uploads/2026/02/film-dating-kitchen-2020-lk21.jpg",
      "synopsis": null,
      "rating": 6.8,
      "duration": null,
      "year": 2020,
      "date_published": null,
      "label_quality": null,
      "genre": null,
      "original_page_url": "https://tv3.nontondrama.my/dating-kitchen-2020"
    },
    {
      "id": "13d3e138-e799-4f02-83a3-180956508c4c",
      "title": "Tehran",
      "original_title": null,
      "thumbnail": "https://poster.lk21.party/wp-content/uploads/2022/05/film-tehran-2020-lk21-d21.jpg",
      "synopsis": null,
      "rating": 7.5,
      "duration": null,
      "year": 2020,
      "date_published": null,
      "label_quality": null,
      "genre": null,
      "original_page_url": "https://tv3.nontondrama.my/tehran-2020"
    },
    {
      "id": "a37c5d43-50fa-4054-9c63-1076e88762d4",
      "title": "My Housekeeper Nagisa-san",
      "original_title": null,
      "thumbnail": "https://poster.lk21.party/wp-content/uploads/2026/02/film-my-housekeeper-nagisa-san-2020-lk21.jpg",
      "synopsis": null,
      "rating": 7.4,
      "duration": null,
      "year": 2020,
      "date_published": null,
      "label_quality": null,
      "genre": null,
      "original_page_url": "https://tv3.nontondrama.my/my-housekeeper-nagisa-san-2020"
    },
    {
      "id": "7af4bba5-4fc5-47c3-9e0f-9046442d9258",
      "title": "Feel Good",
      "original_title": null,
      "thumbnail": "https://poster.lk21.party/wp-content/uploads/2026/01/film-feel-good-2020-lk21.jpg",
      "synopsis": null,
      "rating": 7.5,
      "duration": null,
      "year": 2020,
      "date_published": null,
      "label_quality": null,
      "genre": null,
      "original_page_url": "https://tv3.nontondrama.my/feel-good-2020"
    },
    {
      "id": "e7655244-713a-415a-b4c7-f8b8d4885401",
      "title": "Nothing But Thirty",
      "original_title": null,
      "thumbnail": "https://poster.lk21.party/wp-content/uploads/2025/12/film-nothing-thirty-2020-lk21.jpg",
      "synopsis": null,
      "rating": 7.6,
      "duration": null,
      "year": 2020,
      "date_published": null,
      "label_quality": null,
      "genre": null,
      "original_page_url": "https://tv3.nontondrama.my/nothing-thirty-2020"
    },
    {
      "id": "77e41665-f84e-461b-857f-2d678712b79f",
      "title": "Kyojo",
      "original_title": null,
      "thumbnail": "https://poster.lk21.party/wp-content/uploads/2025/12/film-kyojo-2020-lk21.jpg",
      "synopsis": null,
      "rating": 6.9,
      "duration": null,
      "year": 2020,
      "date_published": null,
      "label_quality": null,
      "genre": null,
      "original_page_url": "https://tv3.nontondrama.my/kyojo-2020"
    },
    {
      "id": "f7b358d9-b486-40c5-83cc-133f2f571102",
      "title": "Dream Raider",
      "original_title": null,
      "thumbnail": "https://poster.lk21.party/wp-content/uploads/2025/12/film-dream-raider-2020-lk21.jpg",
      "synopsis": null,
      "rating": 5,
      "duration": null,
      "year": 2020,
      "date_published": null,
      "label_quality": null,
      "genre": null,
      "original_page_url": "https://tv3.nontondrama.my/dream-raider-2020"
    },
    {
      "id": "f6e4e5f8-324c-4dbc-905e-baa28f8733a1",
      "title": "Workers",
      "original_title": null,
      "thumbnail": "https://poster.lk21.party/wp-content/uploads/2025/12/film-workers-2020-lk21.jpg",
      "synopsis": null,
      "rating": 8.1,
      "duration": null,
      "year": 2020,
      "date_published": null,
      "label_quality": null,
      "genre": null,
      "original_page_url": "https://tv3.nontondrama.my/workers-2020"
    },
    {
      "id": "d99148fb-1e86-4d4e-a297-9f9b98f5743c",
      "title": "Power Book II: Ghost",
      "original_title": null,
      "thumbnail": "https://poster.lk21.party/wp-content/uploads/2026/01/film-power-book-ii-ghost-2020-lk21.jpg",
      "synopsis": null,
      "rating": 7.5,
      "duration": null,
      "year": 2020,
      "date_published": null,
      "label_quality": null,
      "genre": null,
      "original_page_url": "https://tv3.nontondrama.my/power-book-ii-ghost-2020"
    },
    {
      "id": "f2e9d005-9fb9-4a50-a179-ae901edcebc9",
      "title": "Star Trek: Lower Decks",
      "original_title": null,
      "thumbnail": "https://poster.lk21.party/wp-content/uploads/2025/12/film-star-trek-lower-decks-2020-lk21.jpg",
      "synopsis": null,
      "rating": 7.8,
      "duration": null,
      "year": 2020,
      "date_published": null,
      "label_quality": "HD",
      "genre": null,
      "original_page_url": "https://tv3.nontondrama.my/star-trek-lower-decks-2020"
    },
    {
      "id": "f9e8fd68-9f3d-4e2d-8aac-27c3500f9e3e",
      "title": "Emily in Paris",
      "original_title": null,
      "thumbnail": "https://poster.lk21.party/wp-content/uploads/2021/12/film-emily-in-paris-2020-lk21-d21.jpg",
      "synopsis": null,
      "rating": 6.9,
      "duration": null,
      "year": 2020,
      "date_published": null,
      "label_quality": null,
      "genre": null,
      "original_page_url": "https://tv3.nontondrama.my/emily-in-paris-2020"
    },
    {
      "id": "1734d686-539f-4ab7-9c0d-567df6c8a45b",
      "title": "Chip In",
      "original_title": null,
      "thumbnail": "https://poster.lk21.party/wp-content/uploads/2025/11/film-chip-2020-lk21.jpg",
      "synopsis": null,
      "rating": 7.3,
      "duration": null,
      "year": 2020,
      "date_published": null,
      "label_quality": null,
      "genre": null,
      "original_page_url": "https://tv3.nontondrama.my/chip-2020"
    },
    {
      "id": "4c74c0f7-22c7-4ba1-aecf-aa69cbdf2d3e",
      "title": "9-1-1: Lone Star",
      "original_title": null,
      "thumbnail": "https://poster.lk21.party/wp-content/uploads/2022/03/film-9-1-1-lone-star-2020-lk21-d21.jpg",
      "synopsis": null,
      "rating": 6.9,
      "duration": null,
      "year": 2020,
      "date_published": null,
      "label_quality": null,
      "genre": null,
      "original_page_url": "https://tv3.nontondrama.my/9-1-1-lone-star-2020"
    },
    {
      "id": "65ffc9c3-dde0-4925-a187-5f4789b6f671",
      "title": "Stargirl",
      "original_title": null,
      "thumbnail": "https://poster.lk21.party/wp-content/uploads/2022/01/film-stargirl-2020-2-lk21-d21.jpg",
      "synopsis": null,
      "rating": 7.1,
      "duration": null,
      "year": 2020,
      "date_published": null,
      "label_quality": null,
      "genre": null,
      "original_page_url": "https://tv3.nontondrama.my/stargirl-2020-2"
    },
    {
      "id": "bdaec38c-0a97-4669-8b86-7242ec148e8d",
      "title": "The Temperature of Language: Our Nineteen",
      "original_title": null,
      "thumbnail": "https://poster.lk21.party/wp-content/uploads/2025/10/film-temperature-language-our-nineteen-2020-lk21.jpg",
      "synopsis": null,
      "rating": 7.1,
      "duration": null,
      "year": 2020,
      "date_published": null,
      "label_quality": null,
      "genre": null,
      "original_page_url": "https://tv3.nontondrama.my/temperature-language-our-nineteen-2020"
    },
    {
      "id": "4f52e254-94c0-4d14-8b8d-5264fd22bf37",
      "title": "Please Don't Date Him",
      "original_title": null,
      "thumbnail": "https://poster.lk21.party/wp-content/uploads/2025/10/film-please-dont-date-him-2020-lk21.jpg",
      "synopsis": null,
      "rating": 6.7,
      "duration": null,
      "year": 2020,
      "date_published": null,
      "label_quality": null,
      "genre": null,
      "original_page_url": "https://tv3.nontondrama.my/please-dont-date-him-2020"
    },
    {
      "id": "1112d346-a506-4f44-a6a8-d224e8c641b7",
      "title": "Live On",
      "original_title": null,
      "thumbnail": "https://poster.lk21.party/wp-content/uploads/2025/10/film-laibeu-2020-lk21.jpg",
      "synopsis": null,
      "rating": 7.2,
      "duration": null,
      "year": 2020,
      "date_published": null,
      "label_quality": null,
      "genre": null,
      "original_page_url": "https://tv3.nontondrama.my/laibeu-2020"
    },
    {
      "id": "b7e39c54-2d9b-4129-9abc-f55d61fcdde7",
      "title": "Graceful Friends aka Elegant Friends",
      "original_title": null,
      "thumbnail": "https://poster.lk21.party/wp-content/uploads/2025/10/film-graceful-friends-aka-elegant-friends-2020-lk21.jpg",
      "synopsis": null,
      "rating": 7,
      "duration": null,
      "year": 2020,
      "date_published": null,
      "label_quality": null,
      "genre": null,
      "original_page_url": "https://tv3.nontondrama.my/graceful-friends-aka-elegant-friends-2020"
    },
    {
      "id": "7178ba33-1556-4e4a-9a2d-c5fa790bc927",
      "title": "Alice in Borderland",
      "original_title": null,
      "thumbnail": "https://poster.lk21.party/wp-content/uploads/2025/09/film-alice-in-borderland-2020-lk21.jpg",
      "synopsis": null,
      "rating": 7.8,
      "duration": null,
      "year": 2020,
      "date_published": null,
      "label_quality": null,
      "genre": null,
      "original_page_url": "https://tv3.nontondrama.my/alice-in-borderland-2020"
    },
    {
      "id": "4599e009-9c6c-4c5d-b0ea-d3e0f2ef1b2d",
      "title": "Upload",
      "original_title": null,
      "thumbnail": "https://poster.lk21.party/wp-content/uploads/2022/03/film-upload-2020-lk21-d21.jpg",
      "synopsis": null,
      "rating": 7.9,
      "duration": null,
      "year": 2020,
      "date_published": null,
      "label_quality": null,
      "genre": null,
      "original_page_url": "https://tv3.nontondrama.my/upload-2020"
    }
  ],
  "pagination": {
    "current_page": 1,
    "total_page": 10,
    "total_items": 240,
    "has_next": true,
    "has_prev": false,
    "next_page_url": "https://tv3.nontondrama.my/year/2020/page/2",
    "prev_page_url": null
  }
}
